digraph G {
  scene_description -> host
  host -> sd_renderer_A -> renderer_A
  host -> sd_renderer_B -> renderer_B
  host -> sd_renderer_C -> renderer_C
  host -> sd_renderer_D -> renderer_D
  host -> sd_renderer_E -> renderer_E
  host -> sd_renderer_F -> renderer_F
}
