00:00:00    35MB         | log started Thu Apr  5 12:25:32 2012
00:00:00    35MB         | Arnold 4.0.4.0 linux 64-bit gcc412 glibc2102 oiio1007 rlm932 sse (build date: Mar 30 2012 20:30:44)
00:00:00    35MB         | host application: kick
00:00:00    35MB         | running on cs-ws60.mill.co.uk, 2 x Dual-Core AMD Opteron(tm) Processor 2218 (4 cores, 4 logical) with 7921MB
00:00:00    35MB         |  
00:00:00    35MB         | loading plugins from . ...
00:00:00    35MB         | no plugins loaded
00:00:00    35MB         | [ass] loading scene2_arnold_05.ass ...
00:00:00    48MB         | [ass] read 15972309 bytes, 4581 nodes in 0:00.59
00:00:00    48MB         |  
00:00:00    48MB         | [rlm] checking connection to license server on 5053@licence2.mill.co.uk ...
00:00:00    58MB         | [rlm] checkout of arnold (version 400) from licence2.mill.co.uk OK
00:00:00    66MB         |  
00:00:00    66MB         | there are 1 light and 4524 objects:
00:00:00    66MB         |  183 polymeshes
00:00:00    66MB         |  210 boxes
00:00:00    66MB         |  1902 cylinders
00:00:00    66MB         |  306 cones
00:00:00    66MB         |  1819 spheres
00:00:00    66MB         |  104 disks
00:00:00    66MB         |  
00:00:00    66MB         | auto-detected 4 threads
00:00:00    67MB         | rendering image at 500 x 500, 5 AA samples, 50 GI samples, 5 GI bounces
00:00:00    67MB         |  active camera: 'cam05'
00:00:00    67MB         |  initializing 4586 nodes ...
00:00:00    69MB WARNING |   sign_text: 2 degenerate polygons
00:00:00    67MB         |  node initialization done in 0:00.06
00:00:00   166MB         |  creating root object list ...
00:00:00   166MB         |   scene bounds: (-2000 -2000 -4) -> (2000 2000 19.4)
00:00:00   166MB         |  updating 4587 nodes ...
00:00:00   166MB         |   sun: 1 sample, raytraced (distant_light)
00:00:00   166MB         |  node update done in 0:00.00
00:00:00   166MB         |  [aov] parsing output statement: "RGBA RGBA Filter Driver"
00:00:00   166MB         |  [aov] parsing output statement: "RGB RGB kick_display_filter kick_display"
00:00:00   166MB         |  [aov] registered driver: "kick_display" (driver_x11)
00:00:00   166MB         |  [aov]  * "RGB" of type RGB filtered by "kick_display_filter" (gaussian_filter)
00:00:00   209MB         |  [aov] registered driver: "Driver" (driver_png)
00:00:00   209MB         |  [aov]  * "RGBA" of type RGBA filtered by "Filter" (gaussian_filter)
00:00:00   211MB         |  [aov] done preparing 2 AOVs for 2 outputs to 2 drivers (0 deep AOVs)
00:00:00   211MB         |  starting 4 bucket workers of size 16x16 ...
00:00:00   427MB         |   [accel] bvh4 done - 0:00.01 - 4524 prims, 1 key
00:00:00   555MB         |   [accel] bvh4 done - 0:00.00 - 28 prims, 1 key
00:00:00   555MB         |   [accel] bvh4 done - 0:00.00 - 28 prims, 1 key
00:00:00   555MB         |   [accel] bvh4 done - 0:00.00 - 2 prims, 1 key
00:00:00   495MB         |   [accel] bvh4 done - 0:00.01 - 8 prims, 1 key
00:00:00   495MB         |   [accel] bvh4 done - 0:00.00 - 8 prims, 1 key
00:00:00   495MB         |   [accel] bvh4 done - 0:00.00 - 44 prims, 1 key
00:00:00   495MB         |   [accel] bvh4 done - 0:00.00 - 44 prims, 1 key
00:00:00   495MB         |   [accel] bvh4 done - 0:00.00 - 2 prims, 1 key
00:00:00   495MB         |   [accel] bvh4 done - 0:00.00 - 12 prims, 1 key
00:00:00   495MB         |   [accel] bvh4 done - 0:00.00 - 12 prims, 1 key
00:00:00   495MB         |   [accel] bvh4 done - 0:00.00 - 2 prims, 1 key
00:00:00   495MB         |   [accel] bvh4 done - 0:00.06 - 28000 prims, 1 key
00:00:00   495MB         |   [accel] bvh4 done - 0:00.00 - 2 prims, 1 key
00:00:00   499MB         |   [accel] bvh4 done - 0:00.00 - 2 prims, 1 key
00:00:00   499MB         |   [accel] bvh4 done - 0:00.00 - 2 prims, 1 key
00:00:00   499MB         |   [accel] bvh4 done - 0:00.01 - 76 prims, 1 key
00:00:00   499MB         |   [accel] bvh4 done - 0:00.00 - 76 prims, 1 key
00:00:00   499MB         |   [accel] bvh4 done - 0:00.00 - 12 prims, 1 key
00:00:00   499MB         |   [accel] bvh4 done - 0:00.00 - 12 prims, 1 key
00:00:00   499MB         |   [accel] bvh4 done - 0:00.00 - 512 prims, 1 key
00:00:00   499MB         |   [accel] bvh4 done - 0:00.00 - 1024 prims, 1 key
00:00:00   499MB         |   [accel] bvh4 done - 0:00.00 - 2 prims, 1 key
00:00:00   499MB         |   [accel] bvh4 done - 0:00.00 - 2 prims, 1 key
00:00:00   503MB         |   [accel] bvh4 done - 0:00.08 - 28000 prims, 1 key
00:00:00   503MB         |   [accel] bvh4 done - 0:00.00 - 12 prims, 1 key
00:00:00   507MB         |   [accel] bvh4 done - 0:00.04 - 28000 prims, 1 key
00:00:00   507MB         |   [accel] bvh4 done - 0:00.00 - 2 prims, 1 key
00:00:00   507MB         |   [accel] bvh4 done - 0:00.00 - 2 prims, 1 key
00:00:00   507MB         |   [accel] bvh4 done - 0:00.00 - 12 prims, 1 key
00:00:00   507MB         |   [accel] bvh4 done - 0:00.00 - 2 prims, 1 key
00:00:00   507MB         |   [accel] bvh4 done - 0:00.00 - 12 prims, 1 key
00:00:00   507MB         |   [accel] bvh4 done - 0:00.09 - 28000 prims, 1 key
00:00:00   507MB         |   [accel] bvh4 done - 0:00.00 - 12 prims, 1 key
00:00:00   507MB         |   [accel] bvh4 done - 0:00.00 - 12 prims, 1 key
00:00:00   507MB         |   [accel] bvh4 done - 0:00.00 - 12 prims, 1 key
00:00:00   507MB         |   [accel] bvh4 done - 0:00.00 - 2 prims, 1 key
00:00:00   507MB         |   [accel] bvh4 done - 0:00.00 - 20 prims, 1 key
00:00:00   507MB         |   [accel] bvh4 done - 0:00.00 - 2 prims, 1 key
00:00:00   511MB         |   [accel] bvh4 done - 0:00.00 - 2 prims, 1 key
00:00:00   511MB         |   [accel] bvh4 done - 0:00.00 - 8 prims, 1 key
00:00:00   511MB         |   [accel] bvh4 done - 0:00.00 - 8 prims, 1 key
00:00:00   511MB         |   [accel] bvh4 done - 0:00.00 - 2 prims, 1 key
00:00:00   511MB         |   [accel] bvh4 done - 0:00.00 - 12 prims, 1 key
00:00:00   511MB         |   [accel] bvh4 done - 0:00.04 - 28000 prims, 1 key
00:00:00   511MB         |   [accel] bvh4 done - 0:00.00 - 12 prims, 1 key
00:00:00   511MB         |   [accel] bvh4 done - 0:00.00 - 36 prims, 1 key
00:00:00   511MB         |   [accel] bvh4 done - 0:00.00 - 12 prims, 1 key
00:00:00   511MB         |   [accel] bvh4 done - 0:00.00 - 512 prims, 1 key
00:00:01   511MB         |   [accel] bvh4 done - 0:00.00 - 64 prims, 1 key
00:00:01   511MB         |   [accel] bvh4 done - 0:00.00 - 512 prims, 1 key
00:00:01   511MB         |   [accel] bvh4 done - 0:00.00 - 12 prims, 1 key
00:00:01   511MB         |   [accel] bvh4 done - 0:00.00 - 2 prims, 1 key
00:00:01   511MB         |   [accel] bvh4 done - 0:00.00 - 1024 prims, 1 key
00:00:01   511MB         |   [accel] bvh4 done - 0:00.00 - 1024 prims, 1 key
00:00:01   511MB         |   [accel] bvh4 done - 0:00.00 - 8 prims, 1 key
00:00:01   511MB         |   [accel] bvh4 done - 0:00.00 - 465 prims, 1 key
00:00:01   515MB         |   [accel] bvh4 done - 0:00.00 - 12 prims, 1 key
00:00:01   515MB         |   [accel] bvh4 done - 0:00.00 - 2 prims, 1 key
00:00:01   515MB         |   [accel] bvh4 done - 0:00.00 - 12 prims, 1 key
00:00:01   515MB         |   [accel] bvh4 done - 0:00.00 - 12 prims, 1 key
00:00:01   515MB         |   [accel] bvh4 done - 0:00.00 - 2 prims, 1 key
00:00:01   515MB         |   [accel] bvh4 done - 0:00.00 - 768 prims, 1 key
00:00:01   515MB         |   [accel] bvh4 done - 0:00.00 - 8 prims, 1 key
00:00:01   515MB         |   [accel] bvh4 done - 0:00.00 - 512 prims, 1 key
00:00:01   515MB         |   [accel] bvh4 done - 0:00.00 - 2 prims, 1 key
00:00:01   515MB         |   [accel] bvh4 done - 0:00.00 - 12 prims, 1 key
00:00:01   515MB         |   [accel] bvh4 done - 0:00.00 - 12 prims, 1 key
00:00:01   515MB         |   [accel] bvh4 done - 0:00.00 - 12 prims, 1 key
00:00:01   515MB         |   [accel] bvh4 done - 0:00.00 - 12 prims, 1 key
00:00:01   515MB         |   [accel] bvh4 done - 0:00.00 - 8 prims, 1 key
00:00:01   515MB         |   [accel] bvh4 done - 0:00.00 - 8 prims, 1 key
00:00:01   515MB         |   [accel] bvh4 done - 0:00.00 - 36 prims, 1 key
00:00:01   515MB         |   [accel] bvh4 done - 0:00.00 - 12 prims, 1 key
00:00:01   515MB         |   [accel] bvh4 done - 0:00.00 - 12 prims, 1 key
00:00:01   515MB         |   [accel] bvh4 done - 0:00.00 - 12 prims, 1 key
00:00:01   515MB         |   [accel] bvh4 done - 0:00.00 - 1024 prims, 1 key
00:00:01   515MB         |   [accel] bvh4 done - 0:00.00 - 512 prims, 1 key
00:00:01   515MB         |   [accel] bvh4 done - 0:00.00 - 1024 prims, 1 key
00:00:01   515MB         |   [accel] bvh4 done - 0:00.00 - 512 prims, 1 key
00:00:01   515MB         |   [accel] bvh4 done - 0:00.00 - 512 prims, 1 key
00:00:01   515MB         |   [accel] bvh4 done - 0:00.00 - 1024 prims, 1 key
00:00:01   515MB         |   [accel] bvh4 done - 0:00.04 - 28000 prims, 1 key
00:00:01   515MB         |   [accel] bvh4 done - 0:00.00 - 512 prims, 1 key
00:00:01   515MB         |   [accel] bvh4 done - 0:00.00 - 12 prims, 1 key
00:00:01   515MB         |   [accel] bvh4 done - 0:00.00 - 12 prims, 1 key
00:00:01   518MB         |   [accel] bvh4 done - 0:00.00 - 768 prims, 1 key
00:00:01   518MB         |   [accel] bvh4 done - 0:00.00 - 512 prims, 1 key
00:00:01   518MB         |   [accel] bvh4 done - 0:00.00 - 768 prims, 1 key
00:00:01   518MB         |   [accel] bvh4 done - 0:00.00 - 64 prims, 1 key
00:00:01   518MB         |   [accel] bvh4 done - 0:00.00 - 1024 prims, 1 key
00:00:01   518MB         |   [accel] bvh4 done - 0:00.00 - 8 prims, 1 key
00:00:01   518MB         |   [accel] bvh4 done - 0:00.00 - 512 prims, 1 key
00:00:01   518MB         |   [accel] bvh4 done - 0:00.00 - 512 prims, 1 key
00:00:01   518MB         |   [accel] bvh4 done - 0:00.00 - 12 prims, 1 key
00:00:01   518MB         |   [accel] bvh4 done - 0:00.00 - 12 prims, 1 key
00:00:01   518MB         |   [accel] bvh4 done - 0:00.00 - 12 prims, 1 key
00:00:01   518MB         |   [accel] bvh4 done - 0:00.00 - 8 prims, 1 key
00:00:01   518MB         |   [accel] bvh4 done - 0:00.00 - 12 prims, 1 key
00:00:01   518MB         |   [accel] bvh4 done - 0:00.00 - 512 prims, 1 key
00:00:01   518MB         |   [accel] bvh4 done - 0:00.00 - 12 prims, 1 key
00:00:01   519MB         |   [accel] bvh4 done - 0:00.04 - 21672 prims, 1 key
00:00:01   519MB         |   [accel] bvh4 done - 0:00.00 - 12 prims, 1 key
00:00:01   519MB         |   [accel] bvh4 done - 0:00.00 - 512 prims, 1 key
00:00:01   519MB         |   [accel] bvh4 done - 0:00.00 - 12 prims, 1 key
00:00:01   519MB         |   [accel] bvh4 done - 0:00.00 - 512 prims, 1 key
00:00:01   519MB         |   [accel] bvh4 done - 0:00.00 - 8 prims, 1 key
00:00:01   519MB         |   [accel] bvh4 done - 0:00.00 - 44 prims, 1 key
00:00:01   519MB         |   [accel] bvh4 done - 0:00.00 - 12 prims, 1 key
00:00:01   519MB         |   [accel] bvh4 done - 0:00.00 - 8 prims, 1 key
00:00:01   519MB         |   [accel] bvh4 done - 0:00.00 - 512 prims, 1 key
00:00:01   519MB         |   [accel] bvh4 done - 0:00.00 - 1024 prims, 1 key
00:00:01   520MB         |   [accel] bvh4 done - 0:00.00 - 8 prims, 1 key
00:00:01   520MB         |   [accel] bvh4 done - 0:00.00 - 12 prims, 1 key
00:00:01   520MB         |   [accel] bvh4 done - 0:00.00 - 2 prims, 1 key
00:00:01   520MB         |   [accel] bvh4 done - 0:00.00 - 8 prims, 1 key
00:00:01   520MB         |   [accel] bvh4 done - 0:00.00 - 12 prims, 1 key
00:00:01   520MB         |   [accel] bvh4 done - 0:00.00 - 12 prims, 1 key
00:00:01   520MB         |   [accel] bvh4 done - 0:00.00 - 12 prims, 1 key
00:00:01   520MB         |   [accel] bvh4 done - 0:00.00 - 2 prims, 1 key
00:00:01   520MB         |   [accel] bvh4 done - 0:00.00 - 2 prims, 1 key
00:00:01   520MB         |   [accel] bvh4 done - 0:00.00 - 20 prims, 1 key
00:00:01   520MB         |   [accel] bvh4 done - 0:00.00 - 768 prims, 1 key
00:00:01   520MB         |   [accel] bvh4 done - 0:00.00 - 768 prims, 1 key
00:00:01   520MB         |   [accel] bvh4 done - 0:00.00 - 12 prims, 1 key
00:00:01   520MB         |   [accel] bvh4 done - 0:00.00 - 768 prims, 1 key
00:00:01   520MB         |   [accel] bvh4 done - 0:00.00 - 2 prims, 1 key
00:00:01   520MB         |   [accel] bvh4 done - 0:00.00 - 512 prims, 1 key
00:00:01   520MB         |   [accel] bvh4 done - 0:00.00 - 12 prims, 1 key
00:00:01   520MB         |   [accel] bvh4 done - 0:00.00 - 12 prims, 1 key
00:00:01   520MB         |   [accel] bvh4 done - 0:00.00 - 768 prims, 1 key
00:00:01   520MB         |   [accel] bvh4 done - 0:00.00 - 768 prims, 1 key
00:00:01   520MB         |   [accel] bvh4 done - 0:00.00 - 12 prims, 1 key
00:00:01   520MB         |   [accel] bvh4 done - 0:00.00 - 12 prims, 1 key
00:00:01   520MB         |   [accel] bvh4 done - 0:00.00 - 12 prims, 1 key
00:00:01   520MB         |   [accel] bvh4 done - 0:00.00 - 12 prims, 1 key
00:00:01   520MB         |   [accel] bvh4 done - 0:00.00 - 12 prims, 1 key
00:00:01   520MB         |   [accel] bvh4 done - 0:00.00 - 2 prims, 1 key
00:00:01   520MB         |   [accel] bvh4 done - 0:00.00 - 44 prims, 1 key
00:00:01   520MB         |   [accel] bvh4 done - 0:00.00 - 12 prims, 1 key
00:00:01   520MB         |   [accel] bvh4 done - 0:00.00 - 12 prims, 1 key
00:00:01   520MB         |   [accel] bvh4 done - 0:00.00 - 12 prims, 1 key
00:00:01   520MB         |   [accel] bvh4 done - 0:00.00 - 12 prims, 1 key
00:00:01   520MB         |   [accel] bvh4 done - 0:00.00 - 2 prims, 1 key
00:00:01   520MB         |   [accel] bvh4 done - 0:00.00 - 12 prims, 1 key
00:00:01   520MB         |   [accel] bvh4 done - 0:00.00 - 12 prims, 1 key
00:00:01   520MB         |   [accel] bvh4 done - 0:00.00 - 2 prims, 1 key
00:00:02   520MB         |   [accel] bvh4 done - 0:00.00 - 2 prims, 1 key
00:00:02   520MB         |   [accel] bvh4 done - 0:00.00 - 2 prims, 1 key
00:00:02   520MB         |   [accel] bvh4 done - 0:00.00 - 12 prims, 1 key
00:00:02   520MB         |   [accel] bvh4 done - 0:00.00 - 12 prims, 1 key
00:00:02   520MB         |   [accel] bvh4 done - 0:00.00 - 12 prims, 1 key
00:00:02   520MB         |   [accel] bvh4 done - 0:00.00 - 12 prims, 1 key
00:00:02   520MB         |   [accel] bvh4 done - 0:00.00 - 768 prims, 1 key
00:00:02   520MB         |   [accel] bvh4 done - 0:00.00 - 12 prims, 1 key
00:00:03   520MB         |   [accel] bvh4 done - 0:00.00 - 12 prims, 1 key
00:00:03   520MB         |   [accel] bvh4 done - 0:00.00 - 12 prims, 1 key
00:00:04   521MB         |   [accel] bvh4 done - 0:00.00 - 2 prims, 1 key
00:00:06   521MB         |   [accel] bvh4 done - 0:00.00 - 12 prims, 1 key
00:00:06   521MB         |   [accel] bvh4 done - 0:00.00 - 768 prims, 1 key
00:00:06   521MB         |   [accel] bvh4 done - 0:00.00 - 768 prims, 1 key
00:00:08   521MB         |   [accel] bvh4 done - 0:00.00 - 12 prims, 1 key
00:00:08   521MB         |   [accel] bvh4 done - 0:00.00 - 12 prims, 1 key
00:00:09   521MB         |   [accel] bvh4 done - 0:00.00 - 12 prims, 1 key
00:00:11   521MB         |   [accel] bvh4 done - 0:00.00 - 2 prims, 1 key
00:00:17   521MB         |   [accel] bvh4 done - 0:00.00 - 12 prims, 1 key
00:00:26   521MB         |   [accel] bvh4 done - 0:00.00 - 2 prims, 1 key
00:00:40   521MB         |   [accel] bvh4 done - 0:00.00 - 12 prims, 1 key
00:04:41   521MB         |   [accel] bvh4 done - 0:00.00 - 2 prims, 1 key
00:04:41   521MB         |   [accel] bvh4 done - 0:00.00 - 2 prims, 1 key
00:13:47   521MB         |     0% done - 631646 rays/pixel
00:23:03   525MB         |   [accel] bvh4 done - 0:00.00 - 12 prims, 1 key
04:44:59   527MB         |     5% done - 712415 rays/pixel
08:06:19   529MB         |   [accel] bvh4 done - 0:00.00 - 2 prims, 1 key
08:06:19   529MB         |   [accel] bvh4 done - 0:00.00 - 512 prims, 1 key
10:27:46   529MB         |    10% done - 696189 rays/pixel
11:01:33   548MB         |   [accel] bvh4 done - 0:00.00 - 2 prims, 1 key
15:33:34   548MB         |    15% done - 671155 rays/pixel
16:27:02   548MB         |   [accel] bvh4 done - 0:00.00 - 8 prims, 1 key
19:52:36   548MB         |    20% done - 641750 rays/pixel
20:24:12   548MB         |   [accel] bvh4 done - 0:00.35 - 768 prims, 1 key
21:22:54   548MB         |   [accel] bvh4 done - 0:00.40 - 8 prims, 1 key
23:07:11   548MB         |    25% done - 632230 rays/pixel
25:38:15   548MB         |    30% done - 600201 rays/pixel
27:34:09   548MB         |    35% done - 597195 rays/pixel
27:56:39   549MB         |   [accel] bvh4 done - 0:00.01 - 12 prims, 1 key
29:55:09   549MB         |    40% done - 582100 rays/pixel
31:52:15   549MB         |    45% done - 572959 rays/pixel
33:50:21   549MB         |    50% done - 560467 rays/pixel
35:43:29   549MB         |    55% done - 542616 rays/pixel
37:36:06   549MB         |    60% done - 535143 rays/pixel
39:28:25   549MB         |    65% done - 533529 rays/pixel
41:24:53   549MB         |    70% done - 524750 rays/pixel
42:51:21   549MB         |   [accel] bvh4 done - 0:00.00 - 2 prims, 1 key
43:14:56   549MB         |    75% done - 520355 rays/pixel
45:08:41   549MB         |    80% done - 511483 rays/pixel
48:19:45   613MB         |    85% done - 526137 rays/pixel
50:13:10   613MB         |    90% done - 522257 rays/pixel
54:26:54   613MB         |    95% done - 546500 rays/pixel
56:35:23   613MB         |   100% done - 540675 rays/pixel
56:35:23   613MB         |  bucket workers done in 56:35:22.89
56:35:23   613MB         | render done
56:35:23   613MB         | [driver_png] writing file `scene2_arnold_05.png'
56:35:24   612MB         |  
56:35:24   612MB         | -----------------------------------------------------------------------------------------
56:35:24   612MB         | scene creation time:
56:35:24   612MB         |  plugin loading               0:00.00
56:35:24   612MB         |  .ass parsing                 0:00.59
56:35:24   612MB         |  system/unaccounted           0:00.47
56:35:24   612MB         |  total                        0:00.60  (22.66% machine utilization)
56:35:24   612MB         | -----------------------------------------------------------------------------------------
56:35:24   612MB         | render time:
56:35:24   612MB         |  node init                    0:00.06
56:35:24   612MB         |  bucket rendering         56:35:22.89
56:35:24   612MB         |   accel. building             0:01.37
56:35:24   612MB         |   pixel rendering         56:35:21.51  (multi-threaded render, this value may not be reliable)
56:35:24   612MB         |  system/unaccounted       10:05:19.64
56:35:24   612MB         |  total                    56:35:23.63  (82.17% machine utilization)
56:35:24   612MB         | -----------------------------------------------------------------------------------------
56:35:24   612MB         | memory consumed in MB:
56:35:24   612MB         |  at startup                     34.59
56:35:24   612MB         |  plugins                         0.22
56:35:24   612MB         |  AOV samples                     1.11
56:35:24   612MB         |  output buffers                  0.98
56:35:24   612MB         |  node overhead                   2.30
56:35:24   612MB         |  message passing                 0.01
56:35:24   612MB         |  memory pools                  186.70
56:35:24   612MB         |  geometry                        4.80
56:35:24   612MB         |    polymesh                      4.72
56:35:24   612MB         |  accel. structs                  7.94
56:35:24   612MB         |  string pool                     0.20 (5048 unique strings, overhead 0.04 MB)
56:35:24   612MB         |  texture cache                   1.00
56:35:24   612MB         |  unaccounted                   373.36
56:35:24   612MB         |  total peak                    613.23
56:35:24   612MB         | -----------------------------------------------------------------------------------------
56:35:24   612MB         | ray counts:                           (/pixel , /sample) (% total) (avg. hits) (max hits)
56:35:24   612MB         |  camera                       7952400 (  25.00,    1.00) (  0.00%) (     1.03) (       5)
56:35:24   612MB         |  shadow                   59758981578 (187864.61, 7514.58) ( 34.72%) (     0.00) (       0)
56:35:24   612MB         |  reflection                   2823716 (   8.88,    0.36) (  0.00%) (     1.76) (      10)
56:35:24   612MB         |  refraction                   2070940 (   6.51,    0.26) (  0.00%) (     1.47) (      10)
56:35:24   612MB         |  diffuse                 112346278083 (353183.56, 14127.34) ( 65.27%) (     1.05) (      11)
56:35:24   612MB         |  glossy                       3447435 (  10.84,    0.43) (  0.00%) (     1.01) (      11)
56:35:24   612MB         |  total                   172121554152 (541099.40, 21643.98) (100.00%) (     1.02) (      11)
56:35:24   612MB         |  max depth                         12
56:35:24   612MB         | -----------------------------------------------------------------------------------------
56:35:24   612MB         | lighting calculations:                (/pixel , /sample)    secondary (/pixel , /sample)
56:35:24   612MB         |  light loops                 10741578 (  33.77,    1.35) 108394690150 (340760.93, 13630.44)
56:35:24   612MB         |    cached                      904075 (   2.84,    0.11)       388695 (   1.22,    0.05)
56:35:24   612MB         |  indirect diffuse             9837503 (  30.93,    1.24)  88193622479 (277254.74, 11090.19)
56:35:24   612MB         |  indirect glossy               904075 (   2.84,    0.11)            0 (   0.00,    0.00)
56:35:24   612MB         |  light lookups               12291888 (  38.64,    1.55) 111703246450 (351162.06, 14046.48)
56:35:24   612MB         |  lights shaded               12291888 (  38.64,    1.55) 111703246450 (351162.06, 14046.48)
56:35:24   612MB         | -----------------------------------------------------------------------------------------
56:35:24   612MB         | shader calls:                         (/pixel , /sample) (% total)
56:35:24   612MB         |  primary                 111593023674 (350815.55, 14032.62) ( 98.32%)
56:35:24   612MB         |  shadow                     122514664 ( 385.15,   15.41) (  0.11%)
56:35:24   612MB         |  background                 769548900 (2419.23,   96.77) (  0.68%)
56:35:24   612MB         |  total                   113503324032 (356820.97, 14272.84) (100.00%)
56:35:24   612MB         | -----------------------------------------------------------------------------------------
56:35:24   612MB         | geometry:                             (% hit ) (instances) (  init mem,  final mem)
56:35:24   612MB         |  lists                              1 (100.0%) (        0) (      0.03,       0.03)
56:35:24   612MB         |  polymeshes                       183 ( 97.3%) (        0) (      5.64,       4.72)
56:35:24   612MB         |  simple                          4341 ( 88.6%) (        0) (      0.00,       0.04)
56:35:24   612MB         | -----------------------------------------------------------------------------------------
56:35:24   612MB         | geometric elements:                   (      min) (       avg.) (      max)
56:35:24   612MB         |  objects (top level)             4524 (     4524) (     4524.0) (     4524)
56:35:24   612MB         |  polygons                      194598 (        1) (     1063.4) (    28000)
56:35:24   612MB         | -----------------------------------------------------------------------------------------
56:35:24   612MB         | triangle tessellation:                (      min) (       avg.) (      max) (/ element) (% total)
56:35:24   612MB         |  polymeshes                    217877 (        2) (     1224.0) (    28000) (     1.13) (100.00%)
56:35:24   612MB         |  unique triangles:             217877
56:35:24   612MB         |  memory use (in MB)              4.67
56:35:24   612MB         |    vertices                      1.31
56:35:24   612MB         |    vertex indices                1.12
56:35:24   612MB         |    polygon base offsets          0.04
56:35:24   612MB         |    polygon IDs                   0.04
56:35:24   612MB         |    triangulation                 0.04
56:35:24   612MB         |    packed normals                0.43
56:35:24   612MB         |    normal indices                1.11
56:35:24   612MB         |    uv coords                     0.00
56:35:24   612MB         |    uv coords idxs                0.00
56:35:24   612MB         |    uniform indices               0.36
56:35:24   612MB         |  largest polymeshes by triangle count:
56:35:24   612MB         |        28000 tris -- wave4
56:35:24   612MB         |        28000 tris -- wave5
56:35:24   612MB         |        28000 tris -- wave1
56:35:24   612MB         |        28000 tris -- wave6
56:35:24   612MB         |        28000 tris -- wave3
56:35:24   612MB         | -----------------------------------------------------------------------------------------
56:35:24   612MB         | acceleration structures:              (% total)
56:35:24   612MB         |  bvh                              179 (100.00%)
56:35:24   612MB         |  total                            179 (100.00%)
56:35:24   612MB         | -----------------------------------------------------------------------------------------
56:35:24   612MB         | OpenImageIO Texture statistics (0x1e1fc30, cache = 0x1e1e7a0)
56:35:24   612MB         |   Queries/batches : 
56:35:24   612MB         |     texture     :  1018236794 queries in 1018236794 batches
56:35:24   612MB         |     texture 3d  :  0 queries in 0 batches
56:35:24   612MB         |     shadow      :  0 queries in 0 batches
56:35:24   612MB         |     environment :  0 queries in 0 batches
56:35:24   612MB         |   Interpolations :
56:35:24   612MB         |     closest  : 1018206317
56:35:24   612MB         |     bilinear : 143565
56:35:24   612MB         |     bicubic  : 6297
56:35:24   612MB         |   Average anisotropy : 1
56:35:24   612MB         |   Max anisotropy in the wild : 4.88e+03
56:35:24   612MB         | 
56:35:24   612MB         | OpenImageIO ImageCache statistics (0x1e1e7a0) ver 0.10.7
56:35:24   612MB         |   Images : 1 unique
56:35:24   612MB         |     ImageInputs : 1 created, 1 current, 1 peak
56:35:24   612MB         |     Total size of all images referenced : 732 KB
56:35:24   612MB         |     Read from disk : 732 KB
56:35:24   612MB         |     File I/O time : 0.4s (0.1s average per thread)
56:35:24   612MB         |     File open time only : 0.0s
56:35:24   612MB         |   Tiles: 20 created, 20 current, 20 peak
56:35:24   612MB         |     total tile requests : 1018713233
56:35:24   612MB         |     micro-cache misses : 88987845 (8.73532%)
56:35:24   612MB         |     main cache misses : 20 (1.96326e-06%)
56:35:24   612MB         |     Peak cache memory : 1023 KB
56:35:24   612MB         |   1 not tiled, 1 not MIP-mapped
56:35:24   612MB         | -----------------------------------------------------------------------------------------
56:35:24   612MB WARNING | performance warnings:
56:35:24   612MB WARNING |  You are tracing 541099 rays per pixel. You may want to double check your sampling settings.
56:35:24   612MB WARNING |  Scene creation time could be reduced by fixing the following issues:
56:35:24   612MB WARNING |  12 matrices were identity - skipping these will save some memory allocations and reduce fragmentation
56:35:24   612MB         | -----------------------------------------------------------------------------------------
56:35:24   611MB         |  
56:35:24   611MB         | releasing resources
56:35:25   392MB         | Arnold shutdown
