00:00:00   35MB         | log started Mon Mar 26 11:13:43 2012
00:00:00   35MB         | Arnold 4.0.1.3 linux 64-bit gcc412 glibc2102 oiio1004 rlm922 sse (build date: Feb 13 2012 16:17:15)
00:00:00   35MB         | host application: kick
00:00:00   35MB         | running on cs-ws60.mill.co.uk, 2 x Dual-Core AMD Opteron(tm) Processor 2218 (4 cores, 4 logical) with 7921MB
00:00:00   35MB         |  
00:00:00   35MB         | loading plugins from . ...
00:00:00   35MB         | no plugins loaded
00:00:00   35MB         | [ass] loading scene2_arnold_02n.ass ...
00:00:00   46MB         | [ass] read 15212339 bytes, 2837 nodes in 0:00.62
00:00:00   46MB         |  
00:00:00   46MB         | [rlm] connecting to license server on 5053@licence2.mill.co.uk ...
00:00:00   56MB         | [rlm] checkout of arnold (version 400) OK
00:00:00   64MB         |  
00:00:00   64MB         | there are 31 lights and 2748 objects:
00:00:00   64MB         |  135 polymeshes
00:00:00   64MB         |  127 boxes
00:00:00   64MB         |  1189 cylinders
00:00:00   64MB         |  153 cones
00:00:00   64MB         |  1094 spheres
00:00:00   64MB         |  50 disks
00:00:00   64MB         |  
00:00:00   64MB         | auto-detected 4 threads
00:00:00   64MB         | rendering image at 500 x 500, 5 AA samples, 20 GI samples, 3 GI bounces
00:00:00   64MB         |  active camera: 'cam02'
00:00:00   64MB         |  initializing 2842 nodes ...
00:00:00   65MB WARNING |   sign_text: 2 degenerate polygons
00:00:00   63MB         |  node initialization done in 0:00.06
00:00:00  162MB         |  creating root object list ...
00:00:00  162MB         |   scene bounds: (-2000 -2000 -0.227452) -> (2000 2000 19.4)
00:00:00  162MB         |  updating 2843 nodes ...
00:00:00  162MB         |   Point_par4: 1 sample, raytraced (point_light)
00:00:00  162MB         |   Point_par1: 1 sample, raytraced (point_light)
00:00:00  162MB         |   Point_par3: 1 sample, raytraced (point_light)
00:00:00  162MB         |   Point_par2: 1 sample, raytraced (point_light)
00:00:00  162MB         |   typeS4T.d: 1 sample, raytraced (point_light)
00:00:00  162MB         |   typeS4T.d_un0550: 1 sample, raytraced (point_light)
00:00:00  162MB         |   typeS4T.d_un0553: 1 sample, raytraced (point_light)
00:00:00  162MB         |   typeS4T.d_un0556: 1 sample, raytraced (point_light)
00:00:00  162MB         |   typeS1.d: 1 sample, raytraced (point_light)
00:00:00  162MB         |   typeS1.d_un1120: 1 sample, raytraced (point_light)
00:00:00  162MB         |   typeS1.d_un1123: 1 sample, raytraced (point_light)
00:00:00  162MB         |   typeS2.d: 1 sample, raytraced (point_light)
00:00:00  162MB         |   typeS5.d: 1 sample, raytraced (point_light)
00:00:00  162MB         |   typeS5.d_un1126: 1 sample, raytraced (point_light)
00:00:00  162MB         |   typeS5.d_un1129: 1 sample, raytraced (point_light)
00:00:00  162MB         |   typeS4.d: 1 sample, raytraced (point_light)
00:00:00  162MB         |   typeS4.d_un1132: 1 sample, raytraced (point_light)
00:00:00  162MB         |   typeS4.d_un1135: 1 sample, raytraced (point_light)
00:00:00  162MB         |   typeS4.d_un1138: 1 sample, raytraced (point_light)
00:00:00  162MB         |   typeS4.d_un1141: 1 sample, raytraced (point_light)
00:00:00  162MB         |   typeS4.d_un1144: 1 sample, raytraced (point_light)
00:00:00  162MB         |   typeS4.d_un1147: 1 sample, raytraced (point_light)
00:00:00  162MB         |   typeS4.d_un1150: 1 sample, raytraced (point_light)
00:00:00  162MB         |   typeS4.d_un1153: 1 sample, raytraced (point_light)
00:00:00  162MB         |   typeS4.d_un1156: 1 sample, raytraced (point_light)
00:00:00  162MB         |   typeS4.d_un1159: 1 sample, raytraced (point_light)
00:00:00  162MB         |   typeS4.d_un1162: 1 sample, raytraced (point_light)
00:00:00  162MB         |   typeS4.d_un1165: 1 sample, raytraced (point_light)
00:00:00  162MB         |   typeS4.d_un1168: 1 sample, raytraced (point_light)
00:00:00  162MB         |   typeS4.d_un1171: 1 sample, raytraced (point_light)
00:00:00  162MB         |   typeS4.d_un1174: 1 sample, raytraced (point_light)
00:00:00  162MB         |  node update done in 0:00.00
00:00:00  162MB         |  [aov] parsing output statement: "RGBA RGBA Filter Driver"
00:00:00  162MB         |  [aov] parsing output statement: "RGB RGB kick_display_filter kick_display"
00:00:00  162MB         |  [aov] registered driver: "kick_display" (driver_x11)
00:00:00  162MB         |  [aov]  * "RGB" of type RGB filtered by "kick_display_filter" (gaussian_filter)
00:00:00  206MB         |  [aov] registered driver: "Driver" (driver_png)
00:00:00  206MB         |  [aov]  * "RGBA" of type RGBA filtered by "Filter" (gaussian_filter)
00:00:00  271MB         |  [aov] done preparing 2 AOVs for 2 outputs to 2 drivers (0 deep AOVs)
00:00:00  271MB         |  starting 4 bucket workers of size 16x16 ...
00:00:00  559MB         |   [accel] bvh4 done - 0:00.01 - 2748 prims, 1 key
00:00:00  563MB         |   [accel] bvh4 done - 0:00.00 - 44 prims, 1 key
00:00:00  560MB         |   [accel] bvh4 done - 0:00.07 - 28000 prims, 1 key
00:00:00  560MB         |   [accel] bvh4 done - 0:00.00 - 2 prims, 1 key
00:00:00  560MB         |   [accel] bvh4 done - 0:00.00 - 76 prims, 1 key
00:00:00  560MB         |   [accel] bvh4 done - 0:00.00 - 12 prims, 1 key
00:00:00  560MB         |   [accel] bvh4 done - 0:00.00 - 12 prims, 1 key
00:00:00  560MB         |   [accel] bvh4 done - 0:00.00 - 8 prims, 1 key
00:00:00  560MB         |   [accel] bvh4 done - 0:00.00 - 20 prims, 1 key
00:00:00  560MB         |   [accel] bvh4 done - 0:00.00 - 2 prims, 1 key
00:00:00  560MB         |   [accel] bvh4 done - 0:00.00 - 2 prims, 1 key
00:00:00  560MB         |   [accel] bvh4 done - 0:00.00 - 12 prims, 1 key
00:00:00  560MB         |   [accel] bvh4 done - 0:00.00 - 64 prims, 1 key
00:00:00  560MB         |   [accel] bvh4 done - 0:00.00 - 12 prims, 1 key
00:00:00  560MB         |   [accel] bvh4 done - 0:00.00 - 12 prims, 1 key
00:00:00  560MB         |   [accel] bvh4 done - 0:00.00 - 12 prims, 1 key
00:00:00  560MB         |   [accel] bvh4 done - 0:00.00 - 8 prims, 1 key
00:00:00  560MB         |   [accel] bvh4 done - 0:00.00 - 8 prims, 1 key
00:00:00  560MB         |   [accel] bvh4 done - 0:00.00 - 2 prims, 1 key
00:00:00  560MB         |   [accel] bvh4 done - 0:00.00 - 2 prims, 1 key
00:00:00  560MB         |   [accel] bvh4 done - 0:00.00 - 2 prims, 1 key
00:00:00  560MB         |   [accel] bvh4 done - 0:00.00 - 12 prims, 1 key
00:00:00  560MB         |   [accel] bvh4 done - 0:00.00 - 465 prims, 1 key
00:00:00  560MB         |   [accel] bvh4 done - 0:00.00 - 12 prims, 1 key
00:00:00  560MB         |   [accel] bvh4 done - 0:00.00 - 8 prims, 1 key
00:00:00  560MB         |   [accel] bvh4 done - 0:00.00 - 8 prims, 1 key
00:00:00  560MB         |   [accel] bvh4 done - 0:00.00 - 12 prims, 1 key
00:00:00  560MB         |   [accel] bvh4 done - 00:00:00 - 2 prims, 1 key
00:00:00  560MB         |   [accel] bvh4 done - 0:00.00 - 8 prims, 1 key
00:00:00  560MB         |   [accel] bvh4 done - 0:00.07 - 28000 prims, 1 key
00:00:00  560MB         |   [accel] bvh4 done - 0:00.00 - 1024 prims, 1 key
00:00:00  560MB         |   [accel] bvh4 done - 0:00.00 - 512 prims, 1 key
00:00:00  560MB         |   [accel] bvh4 done - 0:00.09 - 28000 prims, 1 key
00:00:00  560MB         |   [accel] bvh4 done - 0:00.07 - 28000 prims, 1 key
00:00:00  560MB         |   [accel] bvh4 done - 0:00.00 - 2 prims, 1 key
00:00:00  560MB         |   [accel] bvh4 done - 0:00.00 - 512 prims, 1 key
00:00:00  560MB         |   [accel] bvh4 done - 0:00.00 - 768 prims, 1 key
00:00:00  560MB         |   [accel] bvh4 done - 0:00.00 - 12 prims, 1 key
00:00:00  560MB         |   [accel] bvh4 done - 0:00.00 - 1024 prims, 1 key
00:00:00  560MB         |   [accel] bvh4 done - 0:00.00 - 8 prims, 1 key
00:00:01  560MB         |   [accel] bvh4 done - 0:00.00 - 8 prims, 1 key
00:00:01  560MB         |   [accel] bvh4 done - 0:00.00 - 512 prims, 1 key
00:00:01  560MB         |   [accel] bvh4 done - 0:00.00 - 512 prims, 1 key
00:00:01  560MB         |   [accel] bvh4 done - 0:00.00 - 1024 prims, 1 key
00:00:01  560MB         |   [accel] bvh4 done - 0:00.00 - 2 prims, 1 key
00:00:01  560MB         |   [accel] bvh4 done - 0:00.00 - 1024 prims, 1 key
00:00:01  560MB         |   [accel] bvh4 done - 0:00.00 - 12 prims, 1 key
00:00:01  560MB         |   [accel] bvh4 done - 0:00.00 - 768 prims, 1 key
00:00:01  560MB         |   [accel] bvh4 done - 0:00.00 - 512 prims, 1 key
00:00:01  560MB         |   [accel] bvh4 done - 0:00.00 - 1024 prims, 1 key
00:00:01  560MB         |   [accel] bvh4 done - 0:00.00 - 512 prims, 1 key
00:00:01  560MB         |   [accel] bvh4 done - 0:00.00 - 512 prims, 1 key
00:00:01  560MB         |   [accel] bvh4 done - 0:00.00 - 1024 prims, 1 key
00:00:01  560MB         |   [accel] bvh4 done - 0:00.00 - 512 prims, 1 key
00:00:01  560MB         |   [accel] bvh4 done - 0:00.00 - 2 prims, 1 key
00:00:01  560MB         |   [accel] bvh4 done - 0:00.00 - 12 prims, 1 key
00:00:01  560MB         |   [accel] bvh4 done - 0:00.00 - 8 prims, 1 key
00:00:01  560MB         |   [accel] bvh4 done - 0:00.00 - 8 prims, 1 key
00:00:01  560MB         |   [accel] bvh4 done - 0:00.00 - 36 prims, 1 key
00:00:01  560MB         |   [accel] bvh4 done - 0:00.00 - 512 prims, 1 key
00:00:01  560MB         |   [accel] bvh4 done - 0:00.00 - 2 prims, 1 key
00:00:01  560MB         |   [accel] bvh4 done - 0:00.00 - 12 prims, 1 key
00:00:01  560MB         |   [accel] bvh4 done - 0:00.00 - 12 prims, 1 key
00:00:01  560MB         |   [accel] bvh4 done - 0:00.00 - 1024 prims, 1 key
00:00:01  560MB         |   [accel] bvh4 done - 0:00.00 - 512 prims, 1 key
00:00:01  560MB         |   [accel] bvh4 done - 0:00.00 - 768 prims, 1 key
00:00:01  560MB         |   [accel] bvh4 done - 0:00.00 - 8 prims, 1 key
00:00:01  560MB         |   [accel] bvh4 done - 0:00.00 - 1024 prims, 1 key
00:00:01  560MB         |   [accel] bvh4 done - 0:00.00 - 512 prims, 1 key
00:00:01  560MB         |   [accel] bvh4 done - 0:00.00 - 512 prims, 1 key
00:00:01  560MB         |   [accel] bvh4 done - 0:00.00 - 12 prims, 1 key
00:00:01  560MB         |   [accel] bvh4 done - 0:00.00 - 2 prims, 1 key
00:00:01  560MB         |   [accel] bvh4 done - 0:00.00 - 28 prims, 1 key
00:00:01  560MB         |   [accel] bvh4 done - 0:00.00 - 12 prims, 1 key
00:00:01  560MB         |   [accel] bvh4 done - 0:00.00 - 12 prims, 1 key
00:00:01  560MB         |   [accel] bvh4 done - 0:00.00 - 2 prims, 1 key
00:00:01  560MB         |   [accel] bvh4 done - 0:00.00 - 12 prims, 1 key
00:00:01  560MB         |   [accel] bvh4 done - 0:00.00 - 512 prims, 1 key
00:00:01  560MB         |   [accel] bvh4 done - 0:00.00 - 768 prims, 1 key
00:00:01  560MB         |   [accel] bvh4 done - 0:00.00 - 768 prims, 1 key
00:00:01  560MB         |   [accel] bvh4 done - 0:00.00 - 2 prims, 1 key
00:00:01  560MB         |   [accel] bvh4 done - 0:00.00 - 8 prims, 1 key
00:00:01  560MB         |   [accel] bvh4 done - 0:00.00 - 8 prims, 1 key
00:00:01  560MB         |   [accel] bvh4 done - 0:00.00 - 2 prims, 1 key
00:00:01  560MB         |   [accel] bvh4 done - 0:00.00 - 12 prims, 1 key
00:00:01  560MB         |   [accel] bvh4 done - 0:00.00 - 12 prims, 1 key
00:00:01  560MB         |   [accel] bvh4 done - 0:00.00 - 512 prims, 1 key
00:00:01  560MB         |   [accel] bvh4 done - 0:00.00 - 768 prims, 1 key
00:00:01  560MB         |   [accel] bvh4 done - 0:00.00 - 768 prims, 1 key
00:00:01  560MB         |   [accel] bvh4 done - 0:00.00 - 768 prims, 1 key
00:00:01  560MB         |   [accel] bvh4 done - 0:00.00 - 2 prims, 1 key
00:00:01  560MB         |   [accel] bvh4 done - 0:00.00 - 12 prims, 1 key
00:00:01  560MB         |   [accel] bvh4 done - 0:00.00 - 12 prims, 1 key
00:00:01  560MB         |   [accel] bvh4 done - 0:00.00 - 12 prims, 1 key
00:00:01  560MB         |   [accel] bvh4 done - 0:00.00 - 512 prims, 1 key
00:00:01  560MB         |   [accel] bvh4 done - 0:00.00 - 2 prims, 1 key
00:00:01  560MB         |   [accel] bvh4 done - 0:00.00 - 12 prims, 1 key
00:00:01  560MB         |   [accel] bvh4 done - 0:00.00 - 2 prims, 1 key
00:00:01  560MB         |   [accel] bvh4 done - 0:00.00 - 12 prims, 1 key
00:00:01  560MB         |   [accel] bvh4 done - 0:00.00 - 12 prims, 1 key
00:00:01  560MB         |   [accel] bvh4 done - 0:00.00 - 12 prims, 1 key
00:00:01  560MB         |   [accel] bvh4 done - 0:00.00 - 2 prims, 1 key
00:00:01  560MB         |   [accel] bvh4 done - 0:00.13 - 28000 prims, 1 key
00:00:01  560MB         |   [accel] bvh4 done - 0:00.00 - 2 prims, 1 key
00:00:01  560MB         |   [accel] bvh4 done - 0:00.08 - 28000 prims, 1 key
00:00:01  560MB         |   [accel] bvh4 done - 0:00.00 - 12 prims, 1 key
00:00:01  560MB         |   [accel] bvh4 done - 0:00.00 - 12 prims, 1 key
00:00:01  560MB         |   [accel] bvh4 done - 0:00.00 - 512 prims, 1 key
00:00:01  560MB         |   [accel] bvh4 done - 0:00.00 - 2 prims, 1 key
00:00:01  560MB         |   [accel] bvh4 done - 0:00.00 - 2 prims, 1 key
00:00:01  560MB         |   [accel] bvh4 done - 0:00.00 - 44 prims, 1 key
00:00:01  560MB         |   [accel] bvh4 done - 0:00.00 - 12 prims, 1 key
00:00:01  560MB         |   [accel] bvh4 done - 0:00.00 - 12 prims, 1 key
00:00:01  560MB         |   [accel] bvh4 done - 0:00.00 - 12 prims, 1 key
00:00:01  560MB         |   [accel] bvh4 done - 0:00.05 - 21672 prims, 1 key
00:00:01  560MB         |   [accel] bvh4 done - 0:00.00 - 2 prims, 1 key
00:00:01  560MB         |   [accel] bvh4 done - 0:00.00 - 2 prims, 1 key
00:00:01  560MB         |   [accel] bvh4 done - 0:00.00 - 2 prims, 1 key
00:00:02  560MB         |   [accel] bvh4 done - 0:00.00 - 12 prims, 1 key
00:00:02  560MB         |   [accel] bvh4 done - 0:00.00 - 12 prims, 1 key
00:00:02  560MB         |   [accel] bvh4 done - 0:00.00 - 12 prims, 1 key
00:00:02  560MB         |   [accel] bvh4 done - 0:00.00 - 12 prims, 1 key
00:00:02  560MB         |   [accel] bvh4 done - 0:00.00 - 12 prims, 1 key
00:00:02  560MB         |   [accel] bvh4 done - 0:00.00 - 12 prims, 1 key
00:00:02  560MB         |   [accel] bvh4 done - 0:00.00 - 2 prims, 1 key
00:00:03  560MB         |   [accel] bvh4 done - 0:00.00 - 12 prims, 1 key
00:00:05  560MB         |   [accel] bvh4 done - 0:00.00 - 2 prims, 1 key
00:00:05  560MB         |   [accel] bvh4 done - 0:00.00 - 12 prims, 1 key
00:00:06  560MB         |   [accel] bvh4 done - 0:00.00 - 12 prims, 1 key
00:00:07  560MB         |   [accel] bvh4 done - 0:00.00 - 2 prims, 1 key
00:00:07  560MB         |   [accel] bvh4 done - 0:00.00 - 12 prims, 1 key
00:00:07  560MB         |   [accel] bvh4 done - 0:00.00 - 12 prims, 1 key
00:00:08  560MB         |   [accel] bvh4 done - 0:00.00 - 12 prims, 1 key
00:00:10  560MB         |   [accel] bvh4 done - 0:00.00 - 12 prims, 1 key
00:00:12  560MB         |   [accel] bvh4 done - 0:00.00 - 2 prims, 1 key
00:00:23  560MB         |   [accel] bvh4 done - 0:00.00 - 12 prims, 1 key
00:08:21  560MB         |     0% done - 637435 rays/pixel
01:49:43  560MB         |     5% done - 633920 rays/pixel
04:13:10  560MB         |    10% done - 755754 rays/pixel
07:59:56  560MB         |    15% done - 892389 rays/pixel
12:11:31  560MB         |    20% done - 1281646 rays/pixel
14:54:50  560MB         |    25% done - 1039140 rays/pixel
16:52:22  560MB         |    30% done - 1075476 rays/pixel
18:41:42  560MB         |    35% done - 966597 rays/pixel
21:26:33  560MB         |    40% done - 1050738 rays/pixel
23:33:54  560MB         |    45% done - 1025549 rays/pixel
26:00:23  560MB         |    50% done - 1054317 rays/pixel
28:29:54  560MB         |    55% done - 1044526 rays/pixel
30:54:56  560MB         |    60% done - 920704 rays/pixel
35:09:30  560MB         |    65% done - 1021326 rays/pixel
37:55:58  560MB         |    70% done - 988709 rays/pixel
40:00:55  560MB         |    75% done - 978932 rays/pixel
43:20:01  560MB         |    80% done - 1070714 rays/pixel
45:22:27  560MB         |    85% done - 1001303 rays/pixel
47:09:42  560MB         |    90% done - 983950 rays/pixel
49:10:49  560MB         |    95% done - 974016 rays/pixel
51:36:51  560MB         |   100% done - 958636 rays/pixel
51:36:51  560MB         |  bucket workers done in 51:36:50.57
51:36:51  560MB         | render done
51:36:51  560MB         | [driver_png] writing file `scene2_arnold_02n.png'
51:36:51  559MB         |  
51:36:51  559MB         | -----------------------------------------------------------------------------------------
51:36:51  559MB         | scene creation time:
51:36:51  559MB         |  plugin loading               0:00.00
51:36:51  559MB         |  .ass parsing                 0:00.62
51:36:51  559MB         |  system/unaccounted           0:00.50
51:36:51  559MB         |  total                        0:00.65  (22.47% machine utilization)
51:36:51  559MB         | -----------------------------------------------------------------------------------------
51:36:51  559MB         | render time:
51:36:51  559MB         |  node init                    0:00.06
51:36:51  559MB         |  bucket rendering         51:36:50.57
51:36:51  559MB         |   accel. building             0:00.65
51:36:51  559MB         |   pixel rendering         51:36:49.91  (multi-threaded render, this value may not be reliable)
51:36:51  559MB         |  system/unaccounted        1:40:47.88
51:36:51  559MB         |  total                    51:36:50.95  (96.75% machine utilization)
51:36:51  559MB         | -----------------------------------------------------------------------------------------
51:36:51  559MB         | memory consumed in MB:
51:36:51  559MB         |  at startup                     34.25
51:36:51  559MB         |  plugins                         0.34
51:36:51  559MB         |  AOV samples                     1.11
51:36:51  559MB         |  output buffers                  0.98
51:36:51  559MB         |  node overhead                   1.43
51:36:51  559MB         |  message passing                 0.01
51:36:51  559MB         |  memory pools                   33.69
51:36:51  559MB         |  geometry                        4.64
51:36:51  559MB         |    polymesh                      4.59
51:36:51  559MB         |  accel. structs                  6.79
51:36:51  559MB         |  string pool                     0.17 (3303 unique strings, overhead 0.07 MB)
51:36:51  559MB         |  texture cache                   0.00
51:36:51  559MB         |  unaccounted                   480.09
51:36:51  559MB         |  total peak                    563.52
51:36:51  559MB         | -----------------------------------------------------------------------------------------
51:36:51  559MB         | ray counts:                           (/pixel , /sample) (% total) (avg. hits) (max hits)
51:36:51  559MB         |  camera                       7952400 (  25.00,    1.00) (  0.00%) (     1.09) (       3)
51:36:51  559MB         |  shadow                  292977396047 (921034.52, 36841.38) ( 95.30%) (     0.00) (       0)
51:36:51  559MB         |  reflection                  11873886 (  37.33,    1.49) (  0.00%) (     1.94) (       9)
51:36:51  559MB         |  refraction                  13601999 (  42.76,    1.71) (  0.00%) (     1.32) (       8)
51:36:51  559MB         |  diffuse                  14417124234 (45323.19, 1812.93) (  4.69%) (     1.11) (      11)
51:36:51  559MB         |  glossy                       4203022 (  13.21,    0.53) (  0.00%) (     1.21) (       5)
51:36:51  559MB         |  total                   307432151588 (966476.01, 38659.04) (100.00%) (     0.97) (      11)
51:36:51  559MB         |  max depth                         12
51:36:51  559MB         | -----------------------------------------------------------------------------------------
51:36:51  559MB         | lighting calculations:                (/pixel , /sample)    secondary (/pixel , /sample)
51:36:51  559MB         |  light loops                 16996363 (  53.43,    2.14)  12080578631 (37977.78, 1519.11)
51:36:51  559MB         |    cached                     1104974 (   3.47,    0.14)      1114097 (   3.50,    0.14)
51:36:51  559MB         |  indirect diffuse            15891389 (  49.96,    2.00)   8405943055 (26425.81, 1057.03)
51:36:51  559MB         |  indirect glossy              1104974 (   3.47,    0.14)            0 (   0.00,    0.00)
51:36:51  559MB         | -----------------------------------------------------------------------------------------
51:36:51  559MB         | shader calls:                         (/pixel , /sample) (% total)
51:36:51  559MB         |  primary                  13487001516 (42399.15, 1695.97) ( 26.29%)
51:36:51  559MB         |  shadow                     238286701 ( 749.10,   29.96) (  0.46%)
51:36:51  559MB         |  light_filter             37581609065 (118145.49, 4725.82) ( 73.25%)
51:36:51  559MB         |  total                    51306897282 (161293.75, 6451.75) (100.00%)
51:36:51  559MB         | -----------------------------------------------------------------------------------------
51:36:51  559MB         | geometry:                             (% hit ) (instances) (  init mem,  final mem)
51:36:51  559MB         |  lists                              1 (100.0%) (        0) (      0.02,       0.02)
51:36:51  559MB         |  polymeshes                       135 (100.0%) (        0) (      4.66,       4.59)
51:36:51  559MB         |  simple                          2613 (100.0%) (        0) (      0.00,       0.03)
51:36:51  559MB         | -----------------------------------------------------------------------------------------
51:36:51  559MB         | geometric elements:                   (      min) (       avg.) (      max)
51:36:51  559MB         |  objects (top level)             2748 (     2748) (     2748.0) (     2748)
51:36:51  559MB         |  polygons                      191279 (        1) (     1416.9) (    28000)
51:36:51  559MB         | -----------------------------------------------------------------------------------------
51:36:51  559MB         | triangle tessellation:                (      min) (       avg.) (      max) (/ element) (% total)
51:36:51  559MB         |  polymeshes                    213691 (        2) (     1582.9) (    28000) (     1.12) (100.00%)
51:36:51  559MB         |  unique triangles:             213691
51:36:51  559MB         |  memory use (in MB)              4.59
51:36:51  559MB         |    vertices                      1.28
51:36:51  559MB         |    vertex indices                1.11
51:36:51  559MB         |    polygon base offsets          0.04
51:36:51  559MB         |    polygon IDs                   0.04
51:36:51  559MB         |    triangulation                 0.03
51:36:51  559MB         |    packed normals                0.42
51:36:51  559MB         |    normal indices                1.10
51:36:51  559MB         |    uniform indices               0.36
51:36:51  559MB         |  largest polymeshes by triangle count:
51:36:51  559MB         |        28000 tris -- wave4
51:36:51  559MB         |        28000 tris -- wave6
51:36:51  559MB         |        28000 tris -- wave2
51:36:51  559MB         |        28000 tris -- wave1
51:36:51  559MB         |        28000 tris -- wave5
51:36:51  559MB         | -----------------------------------------------------------------------------------------
51:36:51  559MB         | acceleration structures:              (% total)
51:36:51  559MB         |  bvh                              136 (100.00%)
51:36:51  559MB         |  total                            136 (100.00%)
51:36:51  559MB         | -----------------------------------------------------------------------------------------
51:36:51  559MB WARNING | performance warnings:
51:36:51  559MB WARNING |  You are tracing 966476 rays per pixel. You may want to double check your sampling settings.
51:36:51  559MB WARNING |  Scene creation time could be reduced by fixing the following issues:
51:36:51  559MB WARNING |  1 matrices were identity - skipping these will save some memory allocations and reduce fragmentation
51:36:51  559MB         | -----------------------------------------------------------------------------------------
51:36:51  559MB         |  
51:36:51  559MB         | releasing resources
51:36:51  453MB         | Arnold shutdown
