00:00:00    35MB         | log started Wed Apr  4 11:04:00 2012
00:00:00    35MB         | Arnold 4.0.2.0 linux 64-bit gcc412 glibc2102 oiio1004 rlm922 sse (build date: Mar  2 2012 19:36:42)
00:00:00    35MB         | host application: kick
00:00:00    35MB         | running on cs-ws60.mill.co.uk, 2 x Dual-Core AMD Opteron(tm) Processor 2218 (4 cores, 4 logical) with 7921MB
00:00:00    35MB         |  
00:00:00    35MB         | loading plugins from . ...
00:00:00    35MB         | no plugins loaded
00:00:00    35MB         | [ass] loading scene2_arnold_03.ass ...
00:00:01    48MB         | [ass] read 15972258 bytes, 4581 nodes in 0:01.11
00:00:01    48MB         |  
00:00:01    48MB         | [rlm] connecting to license server on 5053@licence2.mill.co.uk ...
00:00:01    58MB         | [rlm] checkout of arnold (version 400) OK
00:00:01    66MB         |  
00:00:01    66MB         | there are 1 light and 4524 objects:
00:00:01    66MB         |  183 polymeshes
00:00:01    66MB         |  210 boxes
00:00:01    66MB         |  1902 cylinders
00:00:01    66MB         |  306 cones
00:00:01    66MB         |  1819 spheres
00:00:01    66MB         |  104 disks
00:00:01    66MB         |  
00:00:01    66MB         | auto-detected 4 threads
00:00:01    66MB         | rendering image at 500 x 500, 5 AA samples, 20 GI samples, 3 GI bounces
00:00:01    66MB         |  active camera: 'cam03'
00:00:01    66MB         |  initializing 4586 nodes ...
00:00:01    68MB WARNING |   sign_text: 2 degenerate polygons
00:00:01    66MB         |  node initialization done in 0:00.14
00:00:01   165MB         |  creating root object list ...
00:00:01   165MB         |   scene bounds: (-2000 -2000 -4) -> (2000 2000 19.4)
00:00:01   165MB         |  updating 4587 nodes ...
00:00:01   165MB         |   sun: 1 sample, raytraced (distant_light)
00:00:01   165MB         |  node update done in 0:00.00
00:00:01   165MB         |  [aov] parsing output statement: "RGBA RGBA Filter Driver"
00:00:01   165MB         |  [aov] parsing output statement: "RGB RGB kick_display_filter kick_display"
00:00:01   165MB         |  [aov] registered driver: "kick_display" (driver_x11)
00:00:01   165MB         |  [aov]  * "RGB" of type RGB filtered by "kick_display_filter" (gaussian_filter)
00:00:01   208MB         |  [aov] registered driver: "Driver" (driver_png)
00:00:01   208MB         |  [aov]  * "RGBA" of type RGBA filtered by "Filter" (gaussian_filter)
00:00:01   210MB         |  [aov] done preparing 2 AOVs for 2 outputs to 2 drivers (0 deep AOVs)
00:00:01   210MB         |  starting 4 bucket workers of size 16x16 ...
00:00:01   562MB         |   [accel] bvh4 done - 0:00.03 - 4524 prims, 1 key
00:00:01   562MB         |   [accel] bvh4 done - 0:00.00 - 44 prims, 1 key
00:00:01   562MB         |   [accel] bvh4 done - 0:00.00 - 44 prims, 1 key
00:00:01   562MB         |   [accel] bvh4 done - 0:00.00 - 2 prims, 1 key
00:00:01   562MB         |   [accel] bvh4 done - 0:00.00 - 2 prims, 1 key
00:00:01   562MB         |   [accel] bvh4 done - 0:00.00 - 8 prims, 1 key
00:00:01   562MB         |   [accel] bvh4 done - 0:00.00 - 8 prims, 1 key
00:00:01   562MB         |   [accel] bvh4 done - 0:00.19 - 28000 prims, 1 key
00:00:01   562MB         |   [accel] bvh4 done - 0:00.00 - 12 prims, 1 key
00:00:01   562MB         |   [accel] bvh4 done - 0:00.00 - 28 prims, 1 key
00:00:01   562MB         |   [accel] bvh4 done - 0:00.00 - 12 prims, 1 key
00:00:01   562MB         |   [accel] bvh4 done - 0:00.00 - 20 prims, 1 key
00:00:01   562MB         |   [accel] bvh4 done - 0:00.00 - 12 prims, 1 key
00:00:01   562MB         |   [accel] bvh4 done - 0:00.00 - 12 prims, 1 key
00:00:01   562MB         |   [accel] bvh4 done - 0:00.00 - 12 prims, 1 key
00:00:01   562MB         |   [accel] bvh4 done - 0:00.00 - 2 prims, 1 key
00:00:01   562MB         |   [accel] bvh4 done - 0:00.00 - 2 prims, 1 key
00:00:01   562MB         |   [accel] bvh4 done - 0:00.00 - 76 prims, 1 key
00:00:01   562MB         |   [accel] bvh4 done - 0:00.00 - 2 prims, 1 key
00:00:01   562MB         |   [accel] bvh4 done - 0:00.00 - 8 prims, 1 key
00:00:01   562MB         |   [accel] bvh4 done - 0:00.00 - 28 prims, 1 key
00:00:01   562MB         |   [accel] bvh4 done - 0:00.00 - 8 prims, 1 key
00:00:01   562MB         |   [accel] bvh4 done - 0:00.00 - 8 prims, 1 key
00:00:01   562MB         |   [accel] bvh4 done - 0:00.00 - 12 prims, 1 key
00:00:01   562MB         |   [accel] bvh4 done - 0:00.18 - 28000 prims, 1 key
00:00:01   562MB         |   [accel] bvh4 done - 0:00.00 - 1024 prims, 1 key
00:00:01   562MB         |   [accel] bvh4 done - 0:00.00 - 76 prims, 1 key
00:00:01   562MB         |   [accel] bvh4 done - 0:00.00 - 12 prims, 1 key
00:00:01   562MB         |   [accel] bvh4 done - 0:00.00 - 12 prims, 1 key
00:00:01   562MB         |   [accel] bvh4 done - 0:00.00 - 1024 prims, 1 key
00:00:01   562MB         |   [accel] bvh4 done - 0:00.00 - 1024 prims, 1 key
00:00:01   562MB         |   [accel] bvh4 done - 0:00.00 - 512 prims, 1 key
00:00:01   562MB         |   [accel] bvh4 done - 0:00.18 - 28000 prims, 1 key
00:00:01   562MB         |   [accel] bvh4 done - 0:00.00 - 36 prims, 1 key
00:00:01   562MB         |   [accel] bvh4 done - 0:00.00 - 2 prims, 1 key
00:00:01   562MB         |   [accel] bvh4 done - 0:00.00 - 2 prims, 1 key
00:00:01   562MB         |   [accel] bvh4 done - 0:00.00 - 12 prims, 1 key
00:00:01   562MB         |   [accel] bvh4 done - 0:00.00 - 12 prims, 1 key
00:00:01   562MB         |   [accel] bvh4 done - 0:00.00 - 512 prims, 1 key
00:00:01   562MB         |   [accel] bvh4 done - 0:00.00 - 2 prims, 1 key
00:00:01   562MB         |   [accel] bvh4 done - 0:00.00 - 2 prims, 1 key
00:00:01   562MB         |   [accel] bvh4 done - 0:00.22 - 28000 prims, 1 key
00:00:01   562MB         |   [accel] bvh4 done - 0:00.00 - 2 prims, 1 key
00:00:01   562MB         |   [accel] bvh4 done - 0:00.00 - 2 prims, 1 key
00:00:01   562MB         |   [accel] bvh4 done - 0:00.00 - 2 prims, 1 key
00:00:01   562MB         |   [accel] bvh4 done - 0:00.00 - 1024 prims, 1 key
00:00:01   562MB         |   [accel] bvh4 done - 0:00.00 - 2 prims, 1 key
00:00:01   562MB         |   [accel] bvh4 done - 0:00.00 - 512 prims, 1 key
00:00:01   562MB         |   [accel] bvh4 done - 0:00.01 - 12 prims, 1 key
00:00:02   562MB         |   [accel] bvh4 done - 0:00.14 - 28000 prims, 1 key
00:00:02   562MB         |   [accel] bvh4 done - 0:00.00 - 12 prims, 1 key
00:00:02   562MB         |   [accel] bvh4 done - 0:00.00 - 12 prims, 1 key
00:00:02   562MB         |   [accel] bvh4 done - 0:00.00 - 2 prims, 1 key
00:00:02   562MB         |   [accel] bvh4 done - 0:00.00 - 8 prims, 1 key
00:00:02   562MB         |   [accel] bvh4 done - 0:00.00 - 768 prims, 1 key
00:00:02   562MB         |   [accel] bvh4 done - 0:00.00 - 768 prims, 1 key
00:00:02   562MB         |   [accel] bvh4 done - 0:00.00 - 64 prims, 1 key
00:00:02   562MB         |   [accel] bvh4 done - 0:00.00 - 512 prims, 1 key
00:00:02   562MB         |   [accel] bvh4 done - 0:00.00 - 512 prims, 1 key
00:00:02   562MB         |   [accel] bvh4 done - 0:00.00 - 2 prims, 1 key
00:00:02   562MB         |   [accel] bvh4 done - 0:00.00 - 2 prims, 1 key
00:00:02   562MB         |   [accel] bvh4 done - 0:00.00 - 2 prims, 1 key
00:00:02   562MB         |   [accel] bvh4 done - 0:00.23 - 28000 prims, 1 key
00:00:02   562MB         |   [accel] bvh4 done - 0:00.00 - 12 prims, 1 key
00:00:02   562MB         |   [accel] bvh4 done - 0:00.00 - 2 prims, 1 key
00:00:02   562MB         |   [accel] bvh4 done - 0:00.00 - 2 prims, 1 key
00:00:02   562MB         |   [accel] bvh4 done - 0:00.00 - 2 prims, 1 key
00:00:02   562MB         |   [accel] bvh4 done - 0:00.00 - 12 prims, 1 key
00:00:02   562MB         |   [accel] bvh4 done - 0:00.00 - 12 prims, 1 key
00:00:02   562MB         |   [accel] bvh4 done - 0:00.00 - 12 prims, 1 key
00:00:02   562MB         |   [accel] bvh4 done - 0:00.00 - 12 prims, 1 key
00:00:02   562MB         |   [accel] bvh4 done - 0:00.00 - 64 prims, 1 key
00:00:02   562MB         |   [accel] bvh4 done - 0:00.00 - 12 prims, 1 key
00:00:02   562MB         |   [accel] bvh4 done - 0:00.00 - 12 prims, 1 key
00:00:02   562MB         |   [accel] bvh4 done - 0:00.00 - 2 prims, 1 key
00:00:02   562MB         |   [accel] bvh4 done - 0:00.00 - 2 prims, 1 key
00:00:02   562MB         |   [accel] bvh4 done - 0:00.00 - 2 prims, 1 key
00:00:02   562MB         |   [accel] bvh4 done - 0:00.00 - 1024 prims, 1 key
00:00:02   562MB         |   [accel] bvh4 done - 0:00.00 - 768 prims, 1 key
00:00:02   562MB         |   [accel] bvh4 done - 0:00.00 - 512 prims, 1 key
00:00:02   562MB         |   [accel] bvh4 done - 0:00.00 - 8 prims, 1 key
00:00:02   562MB         |   [accel] bvh4 done - 0:00.00 - 12 prims, 1 key
00:00:02   562MB         |   [accel] bvh4 done - 0:00.00 - 12 prims, 1 key
00:00:02   562MB         |   [accel] bvh4 done - 0:00.00 - 1024 prims, 1 key
00:00:02   562MB         |   [accel] bvh4 done - 0:00.00 - 512 prims, 1 key
00:00:02   562MB         |   [accel] bvh4 done - 0:00.00 - 512 prims, 1 key
00:00:02   562MB         |   [accel] bvh4 done - 0:00.01 - 512 prims, 1 key
00:00:02   562MB         |   [accel] bvh4 done - 0:00.01 - 8 prims, 1 key
00:00:02   562MB         |   [accel] bvh4 done - 0:00.00 - 8 prims, 1 key
00:00:02   562MB         |   [accel] bvh4 done - 0:00.00 - 20 prims, 1 key
00:00:02   562MB         |   [accel] bvh4 done - 0:00.00 - 8 prims, 1 key
00:00:02   562MB         |   [accel] bvh4 done - 0:00.00 - 12 prims, 1 key
00:00:02   562MB         |   [accel] bvh4 done - 0:00.00 - 12 prims, 1 key
00:00:02   562MB         |   [accel] bvh4 done - 0:00.00 - 12 prims, 1 key
00:00:02   562MB         |   [accel] bvh4 done - 0:00.00 - 12 prims, 1 key
00:00:02   562MB         |   [accel] bvh4 done - 0:00.00 - 512 prims, 1 key
00:00:02   562MB         |   [accel] bvh4 done - 0:00.00 - 1024 prims, 1 key
00:00:02   562MB         |   [accel] bvh4 done - 0:00.00 - 1024 prims, 1 key
00:00:02   562MB         |   [accel] bvh4 done - 0:00.00 - 12 prims, 1 key
00:00:02   562MB         |   [accel] bvh4 done - 0:00.00 - 512 prims, 1 key
00:00:02   562MB         |   [accel] bvh4 done - 0:00.00 - 768 prims, 1 key
00:00:02   562MB         |   [accel] bvh4 done - 0:00.00 - 512 prims, 1 key
00:00:02   562MB         |   [accel] bvh4 done - 0:00.00 - 12 prims, 1 key
00:00:02   562MB         |   [accel] bvh4 done - 0:00.10 - 21672 prims, 1 key
00:00:02   562MB         |   [accel] bvh4 done - 0:00.01 - 465 prims, 1 key
00:00:02   562MB         |   [accel] bvh4 done - 0:00.00 - 12 prims, 1 key
00:00:02   562MB         |   [accel] bvh4 done - 0:00.00 - 12 prims, 1 key
00:00:02   562MB         |   [accel] bvh4 done - 0:00.00 - 12 prims, 1 key
00:00:02   562MB         |   [accel] bvh4 done - 0:00.00 - 512 prims, 1 key
00:00:02   562MB         |   [accel] bvh4 done - 0:00.00 - 512 prims, 1 key
00:00:02   562MB         |   [accel] bvh4 done - 0:00.00 - 8 prims, 1 key
00:00:02   562MB         |   [accel] bvh4 done - 0:00.00 - 8 prims, 1 key
00:00:02   562MB         |   [accel] bvh4 done - 0:00.00 - 8 prims, 1 key
00:00:02   562MB         |   [accel] bvh4 done - 0:00.00 - 12 prims, 1 key
00:00:02   562MB         |   [accel] bvh4 done - 0:00.00 - 2 prims, 1 key
00:00:02   562MB         |   [accel] bvh4 done - 0:00.00 - 512 prims, 1 key
00:00:02   562MB         |   [accel] bvh4 done - 0:00.00 - 2 prims, 1 key
00:00:02   562MB         |   [accel] bvh4 done - 0:00.00 - 12 prims, 1 key
00:00:02   562MB         |   [accel] bvh4 done - 0:00.00 - 12 prims, 1 key
00:00:02   562MB         |   [accel] bvh4 done - 0:00.00 - 512 prims, 1 key
00:00:02   562MB         |   [accel] bvh4 done - 0:00.00 - 12 prims, 1 key
00:00:02   562MB         |   [accel] bvh4 done - 0:00.00 - 2 prims, 1 key
00:00:02   562MB         |   [accel] bvh4 done - 0:00.00 - 12 prims, 1 key
00:00:02   562MB         |   [accel] bvh4 done - 0:00.00 - 12 prims, 1 key
00:00:02   562MB         |   [accel] bvh4 done - 0:00.00 - 2 prims, 1 key
00:00:02   562MB         |   [accel] bvh4 done - 0:00.00 - 12 prims, 1 key
00:00:02   562MB         |   [accel] bvh4 done - 0:00.00 - 8 prims, 1 key
00:00:02   562MB         |   [accel] bvh4 done - 0:00.00 - 2 prims, 1 key
00:00:02   562MB         |   [accel] bvh4 done - 0:00.00 - 44 prims, 1 key
00:00:02   562MB         |   [accel] bvh4 done - 0:00.00 - 12 prims, 1 key
00:00:02   562MB         |   [accel] bvh4 done - 0:00.00 - 12 prims, 1 key
00:00:02   562MB         |   [accel] bvh4 done - 0:00.00 - 768 prims, 1 key
00:00:02   562MB         |   [accel] bvh4 done - 0:00.00 - 768 prims, 1 key
00:00:02   562MB         |   [accel] bvh4 done - 0:00.00 - 12 prims, 1 key
00:00:02   562MB         |   [accel] bvh4 done - 0:00.00 - 2 prims, 1 key
00:00:02   562MB         |   [accel] bvh4 done - 0:00.00 - 12 prims, 1 key
00:00:02   562MB         |   [accel] bvh4 done - 0:00.00 - 768 prims, 1 key
00:00:02   562MB         |   [accel] bvh4 done - 0:00.00 - 768 prims, 1 key
00:00:02   562MB         |   [accel] bvh4 done - 0:00.00 - 12 prims, 1 key
00:00:02   562MB         |   [accel] bvh4 done - 0:00.00 - 36 prims, 1 key
00:00:02   562MB         |   [accel] bvh4 done - 0:00.00 - 12 prims, 1 key
00:00:03   562MB         |   [accel] bvh4 done - 0:00.00 - 12 prims, 1 key
00:00:03   562MB         |   [accel] bvh4 done - 0:00.00 - 12 prims, 1 key
00:00:03   562MB         |   [accel] bvh4 done - 0:00.00 - 12 prims, 1 key
00:00:03   562MB         |   [accel] bvh4 done - 0:00.00 - 12 prims, 1 key
00:00:03   562MB         |   [accel] bvh4 done - 0:00.00 - 12 prims, 1 key
00:00:03   562MB         |   [accel] bvh4 done - 0:00.00 - 12 prims, 1 key
00:00:03   562MB         |   [accel] bvh4 done - 0:00.00 - 12 prims, 1 key
00:00:03   562MB         |   [accel] bvh4 done - 0:00.00 - 12 prims, 1 key
00:00:04   562MB         |   [accel] bvh4 done - 0:00.00 - 768 prims, 1 key
00:00:04   562MB         |   [accel] bvh4 done - 0:00.00 - 12 prims, 1 key
00:00:04   562MB         |   [accel] bvh4 done - 0:00.00 - 12 prims, 1 key
00:00:05   562MB         |   [accel] bvh4 done - 0:00.00 - 12 prims, 1 key
00:00:06   562MB         |   [accel] bvh4 done - 0:00.00 - 12 prims, 1 key
00:00:09   562MB         |   [accel] bvh4 done - 0:00.00 - 44 prims, 1 key
00:00:09   562MB         |   [accel] bvh4 done - 0:00.00 - 12 prims, 1 key
00:00:09   562MB         |   [accel] bvh4 done - 0:00.00 - 768 prims, 1 key
00:00:09   562MB         |   [accel] bvh4 done - 0:00.01 - 768 prims, 1 key
00:00:09   562MB         |   [accel] bvh4 done - 0:00.00 - 12 prims, 1 key
00:00:09   562MB         |   [accel] bvh4 done - 0:00.00 - 12 prims, 1 key
00:00:09   562MB         |   [accel] bvh4 done - 0:00.00 - 12 prims, 1 key
00:00:10   562MB         |   [accel] bvh4 done - 0:00.00 - 2 prims, 1 key
00:00:15   562MB         |   [accel] bvh4 done - 0:00.00 - 2 prims, 1 key
00:01:14   562MB         |   [accel] bvh4 done - 0:00.00 - 12 prims, 1 key
00:02:07   562MB         |   [accel] bvh4 done - 0:00.00 - 12 prims, 1 key
00:02:32   562MB         |     0% done - 56179 rays/pixel
00:02:41   562MB         |   [accel] bvh4 done - 0:00.00 - 12 prims, 1 key
00:03:43   562MB         |   [accel] bvh4 done - 0:00.00 - 12 prims, 1 key
00:06:45   562MB         |   [accel] bvh4 done - 0:00.00 - 12 prims, 1 key
00:25:57   562MB         |     5% done - 47234 rays/pixel
00:47:42   562MB         |    10% done - 38524 rays/pixel
01:11:03   562MB         |    15% done - 39837 rays/pixel
01:35:03   562MB         |    20% done - 41870 rays/pixel
01:58:10   562MB         |    25% done - 41851 rays/pixel
02:19:42   562MB         |    30% done - 41817 rays/pixel
02:44:02   562MB         |    35% done - 42391 rays/pixel
03:10:33   562MB         |    40% done - 42444 rays/pixel
03:34:21   562MB         |    45% done - 41609 rays/pixel
03:48:31   562MB         |   [accel] bvh4 done - 0:00.00 - 12 prims, 1 key
04:02:24   562MB         |    50% done - 43674 rays/pixel
04:29:02   562MB         |    55% done - 43341 rays/pixel
04:55:18   562MB         |    60% done - 42219 rays/pixel
05:19:56   562MB         |    65% done - 42032 rays/pixel
05:45:52   562MB         |    70% done - 43495 rays/pixel
06:10:52   562MB         |    75% done - 43509 rays/pixel
06:39:38   562MB         |    80% done - 43953 rays/pixel
07:03:55   562MB         |    85% done - 43044 rays/pixel
07:30:55   562MB         |    90% done - 44037 rays/pixel
07:53:49   562MB         |    95% done - 43004 rays/pixel
08:19:03   562MB         |   100% done - 43514 rays/pixel
08:19:03   562MB         |  bucket workers done in 8:19:02.23
08:19:03   562MB         | render done
08:19:03   562MB         | [driver_png] writing file `scene2_arnold_03.png'
08:19:04   561MB         |  
08:19:04   561MB         | -----------------------------------------------------------------------------------------
08:19:04   561MB         | scene creation time:
08:19:04   561MB         |  plugin loading               0:00.00
08:19:04   561MB         |  .ass parsing                 0:01.11
08:19:04   561MB         |  system/unaccounted           0:00.98
08:19:04   561MB         |  total                        0:01.14  (14.36% machine utilization)
08:19:04   561MB         | -----------------------------------------------------------------------------------------
08:19:04   561MB         | render time:
08:19:04   561MB         |  node init                    0:00.15
08:19:04   561MB         |   sanity checks               0:00.05
08:19:04   561MB         |  bucket rendering          8:19:02.23
08:19:04   561MB         |   accel. building             0:01.50
08:19:04   561MB         |   pixel rendering          8:19:00.73  (multi-threaded render, this value may not be reliable)
08:19:04   561MB         |  system/unaccounted        4:24:04.25
08:19:04   561MB         |  total                     8:19:02.91  (47.09% machine utilization)
08:19:04   561MB         | -----------------------------------------------------------------------------------------
08:19:04   561MB         | memory consumed in MB:
08:19:04   561MB         |  at startup                     34.34
08:19:04   561MB         |  plugins                         0.34
08:19:04   561MB         |  AOV samples                     1.11
08:19:04   561MB         |  output buffers                  0.98
08:19:04   561MB         |  node overhead                   2.30
08:19:04   561MB         |  message passing                 0.01
08:19:04   561MB         |  memory pools                   24.69
08:19:04   561MB         |  geometry                        4.80
08:19:04   561MB         |    polymesh                      4.72
08:19:04   561MB         |  accel. structs                  6.97
08:19:04   561MB         |  string pool                     0.20 (5047 unique strings, overhead 0.04 MB)
08:19:04   561MB         |  texture cache                   1.00
08:19:04   561MB         |  unaccounted                   489.45
08:19:04   561MB         |  total peak                    566.21
08:19:04   561MB         | -----------------------------------------------------------------------------------------
08:19:04   561MB         | ray counts:                           (/pixel , /sample) (% total) (avg. hits) (max hits)
08:19:04   561MB         |  camera                       7952400 (  25.00,    1.00) (  0.06%) (     1.02) (       3)
08:19:04   561MB         |  shadow                    4193014781 (13181.60,  527.26) ( 30.76%) (     0.00) (       0)
08:19:04   561MB         |  reflection                   1880693 (   5.91,    0.24) (  0.01%) (     2.10) (      11)
08:19:04   561MB         |  refraction                   1867819 (   5.87,    0.23) (  0.01%) (     1.53) (       7)
08:19:04   561MB         |  diffuse                   9426159732 (29633.07, 1185.32) ( 69.15%) (     1.23) (      11)
08:19:04   561MB         |  glossy                        731688 (   2.30,    0.09) (  0.01%) (     1.18) (       9)
08:19:04   561MB         |  total                    13631607113 (42853.75, 1714.15) (100.00%) (     1.16) (      11)
08:19:04   561MB         |  max depth                         12
08:19:04   561MB         | -----------------------------------------------------------------------------------------
08:19:04   561MB         | lighting calculations:                (/pixel , /sample)    secondary (/pixel , /sample)
08:19:04   561MB         |  light loops                  8887525 (  27.94,    1.12)   8686561694 (27307.99, 1092.32)
08:19:04   561MB         |    cached                      187245 (   0.59,    0.02)        67660 (   0.21,    0.01)
08:19:04   561MB         |  indirect diffuse             8700280 (  27.35,    1.09)   5954786481 (18720.09,  748.80)
08:19:04   561MB         |  indirect glossy               187245 (   0.59,    0.02)            0 (   0.00,    0.00)
08:19:04   561MB         |  light lookups               10477770 (  32.94,    1.32)   9546053303 (30009.98, 1200.40)
08:19:04   561MB         |  lights shaded               10477770 (  32.94,    1.32)   9546053303 (30009.98, 1200.40)
08:19:04   561MB         | -----------------------------------------------------------------------------------------
08:19:04   561MB         | shader calls:                         (/pixel , /sample) (% total)
08:19:04   561MB         |  primary                   9426719921 (29634.83, 1185.39) ( 98.15%)
08:19:04   561MB         |  shadow                     129811152 ( 408.09,   16.32) (  1.35%)
08:19:04   561MB         |  background                  11872411 (  37.32,    1.49) (  0.12%)
08:19:04   561MB         |  total                     9604817701 (30194.71, 1207.79) (100.00%)
08:19:04   561MB         | -----------------------------------------------------------------------------------------
08:19:04   561MB         | geometry:                             (% hit ) (instances) (  init mem,  final mem)
08:19:04   561MB         |  lists                              1 (100.0%) (        0) (      0.03,       0.03)
08:19:04   561MB         |  polymeshes                       183 ( 91.8%) (        0) (      5.64,       4.72)
08:19:04   561MB         |  simple                          4341 ( 83.9%) (        0) (      0.00,       0.04)
08:19:04   561MB         | -----------------------------------------------------------------------------------------
08:19:04   561MB         | geometric elements:                   (      min) (       avg.) (      max)
08:19:04   561MB         |  objects (top level)             4524 (     4524) (     4524.0) (     4524)
08:19:04   561MB         |  polygons                      194598 (        1) (     1063.4) (    28000)
08:19:04   561MB         | -----------------------------------------------------------------------------------------
08:19:04   561MB         | triangle tessellation:                (      min) (       avg.) (      max) (/ element) (% total)
08:19:04   561MB         |  polymeshes                    216559 (        2) (     1289.0) (    28000) (     1.12) (100.00%)
08:19:04   561MB         |  unique triangles:             216559
08:19:04   561MB         |  memory use (in MB)              4.65
08:19:04   561MB         |    vertices                      1.30
08:19:04   561MB         |    vertex indices                1.12
08:19:04   561MB         |    polygon base offsets          0.04
08:19:04   561MB         |    polygon IDs                   0.04
08:19:04   561MB         |    triangulation                 0.03
08:19:04   561MB         |    packed normals                0.42
08:19:04   561MB         |    normal indices                1.11
08:19:04   561MB         |    uv coords                     0.00
08:19:04   561MB         |    uv coords idxs                0.00
08:19:04   561MB         |    uniform indices               0.36
08:19:04   561MB         |  largest polymeshes by triangle count:
08:19:04   561MB         |        28000 tris -- wave4
08:19:04   561MB         |        28000 tris -- wave6
08:19:04   561MB         |        28000 tris -- wave2
08:19:04   561MB         |        28000 tris -- wave3
08:19:04   561MB         |        28000 tris -- wave1
08:19:04   561MB         | -----------------------------------------------------------------------------------------
08:19:04   561MB         | acceleration structures:              (% total)
08:19:04   561MB         |  bvh                              169 (100.00%)
08:19:04   561MB         |  total                            169 (100.00%)
08:19:04   561MB         | -----------------------------------------------------------------------------------------
08:19:04   561MB         | OpenImageIO Texture statistics (0x26ab7b0, cache = 0x26ab520)
08:19:04   561MB         |   Queries/batches : 
08:19:04   561MB         |     texture     :  36414217 queries in 36414217 batches
08:19:04   561MB         |     texture 3d  :  0 queries in 0 batches
08:19:04   561MB         |     shadow      :  0 queries in 0 batches
08:19:04   561MB         |     environment :  0 queries in 0 batches
08:19:04   561MB         |   Interpolations :
08:19:04   561MB         |     closest  : 36110489
08:19:04   561MB         |     bilinear : 1226743
08:19:04   561MB         |     bicubic  : 1072
08:19:04   561MB         |   Average anisotropy : 1.02
08:19:04   561MB         |   Max anisotropy in the wild : 34.3
08:19:04   561MB         | 
08:19:04   561MB         | OpenImageIO ImageCache statistics (0x26ab520) ver 0.10.4
08:19:04   561MB         |   Images : 1 unique
08:19:04   561MB         |     ImageInputs : 1 created, 1 current, 1 peak
08:19:04   561MB         |     Total size of all images referenced : 732 KB
08:19:04   561MB         |     Read from disk : 732 KB
08:19:04   561MB         |     File I/O time : 0.8s (0.2s average per thread)
08:19:04   561MB         |     File open time only : 0.0s
08:19:04   561MB         |   Tiles: 20 created, 20 current, 20 peak
08:19:04   561MB         |     total tile requests : 37768183
08:19:04   561MB         |     micro-cache misses : 2681561 (7.10005%)
08:19:04   561MB         |     main cache misses : 20 (5.29546e-05%)
08:19:04   561MB         |     Peak cache memory : 1023 KB
08:19:04   561MB         |   1 not tiled, 1 not MIP-mapped
08:19:04   561MB         | -----------------------------------------------------------------------------------------
08:19:04   561MB WARNING | performance warnings:
08:19:04   561MB WARNING |  You are tracing 42854 rays per pixel. You may want to double check your sampling settings.
08:19:04   561MB WARNING |  Rendering utilization was only 47%. Your render may be bound by a single threaded process or I/O.
08:19:04   561MB WARNING |  Scene creation time could be reduced by fixing the following issues:
08:19:04   561MB WARNING |  12 matrices were identity - skipping these will save some memory allocations and reduce fragmentation
08:19:04   561MB         | -----------------------------------------------------------------------------------------
08:19:04   561MB         |  
08:19:04   561MB         | releasing resources
08:19:04   455MB         | Arnold shutdown
