<?xml version="1.0" encoding="utf-8"?>
<scene>
	<renderer_settings>
		<uid>1</uid>
		<name>Render Settings</name>
		<aperture_diffraction>false</aperture_diffraction>
		<auto_choose_num_threads>true</auto_choose_num_threads>
		<batched>false</batched>
		<bidirectional>true</bidirectional>
		<bih_tri_threshold>1100000</bih_tri_threshold>
		<cache_trees>true</cache_trees>
		<close_gui_on_halt>false</close_gui_on_halt>
		<depth_pass>false</depth_pass>
		<display_period>20.0000000000000000</display_period>
		<frame_upload_period>40.0000000000000000</frame_upload_period>
		<glass_acceleration>false</glass_acceleration>
		<gpu>false</gpu>
		<gpu_device_number>-1</gpu_device_number>
		<halt_samples_per_pixel>-1.0000000000000000</halt_samples_per_pixel>
		<halt_time>-1.0000000000000000</halt_time>
		<height>500</height>
		<hybrid>false</hybrid>
		<image_save_period>60.0000000000000000</image_save_period>
		<info_overlay>false</info_overlay>
		<large_mutation_prob>0.4000000000000000</large_mutation_prob>
		<logging>false</logging>
		<material_id_tracer>false</material_id_tracer>
		<max_change>0.0100000000000000</max_change>
		<max_depth>10000</max_depth>
		<max_num_consec_rejections>10000</max_num_consec_rejections>
		<metropolis>true</metropolis>
		<num_threads>1</num_threads>
		<post_process_diffraction>false</post_process_diffraction>
		<render_foreground_alpha>false</render_foreground_alpha>
		<save_igi>false</save_igi>
		<save_images_on_close>false</save_images_on_close>
		<save_tonemapped_exr>false</save_tonemapped_exr>
		<save_untonemapped_exr>false</save_untonemapped_exr>
		<super_sample_factor>2</super_sample_factor>
		<use_opencl>false</use_opencl>
		<verbose>false</verbose>
		<vignetting>true</vignetting>
		<wait_for_slave_frames_on_stop>false</wait_for_slave_frames_on_stop>
		<watermark>false</watermark>
		<width>500</width>
		<write_aperture_preview>false</write_aperture_preview>
		<splat_filter>
			<mn_cubic>
				<blur>0.3000000119209290</blur>
				<ring>0.3000000119209290</ring>
			</mn_cubic>
		</splat_filter>
		<downsize_filter>
			<mn_cubic>
				<blur>0.3000000119209290</blur>
				<ring>0.3000000119209290</ring>
				<radius>2.0000000000000000</radius>
			</mn_cubic>
		</downsize_filter>
		<white_point>
			0.333333 0.333333
		</white_point>
		<layer_setting>
			<name>default</name>
			<xyz>1 1 1</xyz>
		</layer_setting>
	</renderer_settings>

	<metadata>
		<uid>2</uid>
		<name>Metadata</name>
		<exporter>Blendigo 3.0.10</exporter>
		<author>wahn</author>
		<description></description>
		<created_date>2012-01-21 22:22:01 GMT</created_date>
		<platform>10.7.2 x86_64 - Darwin Jan-Walters-MacBook-Pro.local 11.2.0 Darwin Kernel Version 11.2.0: Tue Aug 9 20:54:00 PDT 2011; root:xnu-1699.24.8~1/RELEASE_X86_64 x86_64 i386 - Python 3.2 (r32:88445, Mar 1 2011, 21:58:29) [GCC 4.2.1 (Apple Inc. build 5664)]</platform>
		<exporter_specific></exporter_specific>
	</metadata>

	<camera>
		<uid>3</uid>
		<name>Camera</name>
		<aperture_radius>0.0026405448893234</aperture_radius>
		<focus_distance>10.0000000000000000</focus_distance>
		<sensor_width>0.0350000000000000</sensor_width>
		<lens_sensor_dist>0.0422487182291751</lens_sensor_dist>
		<exposure_duration>0.0080000000000000</exposure_duration>
		<lens_shift_up_distance>0.0000000000000000</lens_shift_up_distance>
		<lens_shift_right_distance>0.0000000000000000</lens_shift_right_distance>
	<autofocus/>
		<aperture_shape>
			<circular/>
		</aperture_shape>
		<keyframe>
			<time>0.0000000000000000</time>
			<pos>0 -15 4.3</pos>
			<rotation_quaternion>
				<axis>0 0 1</axis>
				<angle>0.0000000000000000</angle>
			</rotation_quaternion>
		</keyframe>
		<up>0 0 1</up>
		<forwards>-0 1 -0</forwards>
	</camera>

	<tonemapping>
		<uid>4</uid>
		<name>Tone Mapping</name>
		<linear>
			<scale>15.0000000000000000</scale>
		</linear>
	</tonemapping>

	<material>
		<name>blendigo_clay</name>
		<uid>5</uid>
		<diffuse>
			<albedo>
				<constant>
					<rgb>
						<rgb>
							0.8 0.8 0.8
						</rgb>
						<gamma>1</gamma>
					</rgb>
				</constant>
			</albedo>
			<random_triangle_colours>false</random_triangle_colours>
			<layer>0</layer>
		</diffuse>
	</material>

	<material>
		<name>blendigo_null</name>
		<uid>6</uid>
		<null_material>
		</null_material>
	</material>

	<material>
		<name>lightring2</name>
		<uid>7</uid>
		<diffuse>
			<albedo>
				<constant>
					<rgb>
						<rgb>
							1 0.660714 0.063244
						</rgb>
						<gamma>1</gamma>
					</rgb>
				</constant>
			</albedo>
			<base_emission>
				<constant>
					<uniform>
						<value>1.344e+09</value>
					</uniform>
				</constant>
			</base_emission>
			<emission>
				<constant>
					<rgb>
						<rgb>
							1 0.660714 0.063244
						</rgb>
						<gamma>1</gamma>
					</rgb>
				</constant>
			</emission>
			<random_triangle_colours>false</random_triangle_colours>
			<layer>0</layer>
		</diffuse>
	</material>

	<material>
		<name>lightring</name>
		<uid>8</uid>
		<diffuse>
			<albedo>
				<constant>
					<rgb>
						<rgb>
							1 0.659311 0.248767
						</rgb>
						<gamma>1</gamma>
					</rgb>
				</constant>
			</albedo>
			<base_emission>
				<constant>
					<uniform>
						<value>2.2913e+08</value>
					</uniform>
				</constant>
			</base_emission>
			<emission>
				<constant>
					<rgb>
						<rgb>
							1 0.659311 0.248767
						</rgb>
						<gamma>1</gamma>
					</rgb>
				</constant>
			</emission>
			<random_triangle_colours>false</random_triangle_colours>
			<layer>0</layer>
		</diffuse>
	</material>

	<material>
		<name>lumensf</name>
		<uid>9</uid>
		<diffuse>
			<albedo>
				<constant>
					<rgb>
						<rgb>
							1 0.833333 0.5
						</rgb>
						<gamma>1</gamma>
					</rgb>
				</constant>
			</albedo>
			<base_emission>
				<constant>
					<uniform>
						<value>1.2e+07</value>
					</uniform>
				</constant>
			</base_emission>
			<emission>
				<constant>
					<rgb>
						<rgb>
							1 0.833333 0.5
						</rgb>
						<gamma>1</gamma>
					</rgb>
				</constant>
			</emission>
			<random_triangle_colours>false</random_triangle_colours>
			<layer>0</layer>
		</diffuse>
	</material>

	<material>
		<name>diffuse_emit</name>
		<uid>10</uid>
		<diffuse>
			<albedo>
				<constant>
					<rgb>
						<rgb>
							1 0.75 0.375
						</rgb>
						<gamma>1</gamma>
					</rgb>
				</constant>
			</albedo>
			<base_emission>
				<constant>
					<uniform>
						<value>4e+06</value>
					</uniform>
				</constant>
			</base_emission>
			<emission>
				<constant>
					<rgb>
						<rgb>
							1 0.75 0.375
						</rgb>
						<gamma>1</gamma>
					</rgb>
				</constant>
			</emission>
			<random_triangle_colours>false</random_triangle_colours>
			<layer>0</layer>
		</diffuse>
	</material>

	<material>
		<name>diffuse</name>
		<uid>11</uid>
		<diffuse>
			<albedo>
				<constant>
					<rgb>
						<rgb>
							1 0.75 0.375
						</rgb>
						<gamma>1</gamma>
					</rgb>
				</constant>
			</albedo>
			<random_triangle_colours>false</random_triangle_colours>
			<layer>0</layer>
		</diffuse>
	</material>

	<material>
		<name>red_porcelain_dt</name>
		<uid>12</uid>
		<diffuse>
			<albedo>
				<constant>
					<rgb>
						<rgb>
							0.7 0.05 0.05
						</rgb>
						<gamma>1</gamma>
					</rgb>
				</constant>
			</albedo>
			<random_triangle_colours>false</random_triangle_colours>
			<layer>0</layer>
		</diffuse>
	</material>

	<material>
		<name>red_porcelain_ph</name>
		<uid>13</uid>
		<phong>
			<diffuse_albedo>
				<constant>
					<rgb>
						<rgb>
							0.8 0.8 0.8
						</rgb>
						<gamma>1</gamma>
					</rgb>
				</constant>
			</diffuse_albedo>
			<exponent>
				<constant>
					150
				</constant>
			</exponent>
			<layer>0</layer>
			<fresnel_scale>1</fresnel_scale>
			<ior>1.4</ior>
			<nk_data></nk_data>
		</phong>
	</material>

	<material>
		<name>red_porcelain</name>
		<uid>14</uid>
		<blend>
			<a_mat_uid>12</a_mat_uid>
			<b_mat_uid>13</b_mat_uid>
			<blend>
				<constant>
					0.05
				</constant>
			</blend>
			<step_blend>false</step_blend>
		</blend>
	</material>

	<material>
		<name>antique_copper</name>
		<uid>15</uid>
		<phong>
			<exponent>
				<constant>
					10000
				</constant>
			</exponent>
			<layer>0</layer>
			<fresnel_scale>1</fresnel_scale>
			<ior>1.5</ior>
			<nk_data>/Applications/Indigo RT/Indigo.app/Contents/Resources/nkdata/Cu.nk</nk_data>
		</phong>
	</material>

	<material>
		<name>mirror_glass</name>
		<uid>16</uid>
		<phong>
			<exponent>
				<constant>
					1e+06
				</constant>
			</exponent>
			<layer>0</layer>
			<fresnel_scale>1</fresnel_scale>
			<ior>1.5</ior>
			<nk_data>/Applications/Indigo RT/Indigo.app/Contents/Resources/nkdata/Al.nk</nk_data>
		</phong>
	</material>

	<material>
		<name>red1</name>
		<uid>17</uid>
		<diffuse>
			<albedo>
				<constant>
					<rgb>
						<rgb>
							1 0 0
						</rgb>
						<gamma>1</gamma>
					</rgb>
				</constant>
			</albedo>
			<random_triangle_colours>false</random_triangle_colours>
			<layer>0</layer>
		</diffuse>
	</material>

	<material>
		<name>green1</name>
		<uid>18</uid>
		<diffuse>
			<albedo>
				<constant>
					<rgb>
						<rgb>
							0 1 0
						</rgb>
						<gamma>1</gamma>
					</rgb>
				</constant>
			</albedo>
			<random_triangle_colours>false</random_triangle_colours>
			<layer>0</layer>
		</diffuse>
	</material>

	<material>
		<name>green3</name>
		<uid>19</uid>
		<diffuse>
			<albedo>
				<constant>
					<rgb>
						<rgb>
							0 0.8 0.1
						</rgb>
						<gamma>1</gamma>
					</rgb>
				</constant>
			</albedo>
			<random_triangle_colours>false</random_triangle_colours>
			<layer>0</layer>
		</diffuse>
	</material>

	<material>
		<name>cream_porcelain_dt</name>
		<uid>20</uid>
		<diffuse>
			<albedo>
				<constant>
					<rgb>
						<rgb>
							0.6 0.45 0.3
						</rgb>
						<gamma>1</gamma>
					</rgb>
				</constant>
			</albedo>
			<random_triangle_colours>false</random_triangle_colours>
			<layer>0</layer>
		</diffuse>
	</material>

	<material>
		<name>cream_porcelain_ph</name>
		<uid>21</uid>
		<phong>
			<diffuse_albedo>
				<constant>
					<rgb>
						<rgb>
							0.8 0.8 0.8
						</rgb>
						<gamma>1</gamma>
					</rgb>
				</constant>
			</diffuse_albedo>
			<exponent>
				<constant>
					150
				</constant>
			</exponent>
			<layer>0</layer>
			<fresnel_scale>1</fresnel_scale>
			<ior>1.4</ior>
			<nk_data></nk_data>
		</phong>
	</material>

	<material>
		<name>cream_porcelain</name>
		<uid>22</uid>
		<blend>
			<a_mat_uid>20</a_mat_uid>
			<b_mat_uid>21</b_mat_uid>
			<blend>
				<constant>
					0.05
				</constant>
			</blend>
			<step_blend>false</step_blend>
		</blend>
	</material>

	<material>
		<name>frame_brown</name>
		<uid>23</uid>
		<diffuse>
			<albedo>
				<constant>
					<rgb>
						<rgb>
							0.2 0.05 0.01
						</rgb>
						<gamma>1</gamma>
					</rgb>
				</constant>
			</albedo>
			<random_triangle_colours>false</random_triangle_colours>
			<layer>0</layer>
		</diffuse>
	</material>

	<material>
		<name>brow_satin_paint_dt</name>
		<uid>24</uid>
		<diffuse>
			<albedo>
				<constant>
					<rgb>
						<rgb>
							0.2 0.1 0.01
						</rgb>
						<gamma>1</gamma>
					</rgb>
				</constant>
			</albedo>
			<random_triangle_colours>false</random_triangle_colours>
			<layer>0</layer>
		</diffuse>
	</material>

	<material>
		<name>brow_satin_paint_ph</name>
		<uid>25</uid>
		<phong>
			<diffuse_albedo>
				<constant>
					<rgb>
						<rgb>
							0.8 0.8 0.8
						</rgb>
						<gamma>1</gamma>
					</rgb>
				</constant>
			</diffuse_albedo>
			<exponent>
				<constant>
					150
				</constant>
			</exponent>
			<layer>0</layer>
			<fresnel_scale>1</fresnel_scale>
			<ior>1.4</ior>
			<nk_data></nk_data>
		</phong>
	</material>

	<material>
		<name>brow_satin_paint</name>
		<uid>26</uid>
		<blend>
			<a_mat_uid>24</a_mat_uid>
			<b_mat_uid>25</b_mat_uid>
			<blend>
				<constant>
					0.05
				</constant>
			</blend>
			<step_blend>false</step_blend>
		</blend>
	</material>

	<material>
		<name>white_tile_dt</name>
		<uid>27</uid>
		<diffuse>
			<albedo>
				<constant>
					<rgb>
						<rgb>
							0.6 0.5 0.3
						</rgb>
						<gamma>1</gamma>
					</rgb>
				</constant>
			</albedo>
			<random_triangle_colours>false</random_triangle_colours>
			<layer>0</layer>
		</diffuse>
	</material>

	<material>
		<name>white_tile_ph</name>
		<uid>28</uid>
		<phong>
			<diffuse_albedo>
				<constant>
					<rgb>
						<rgb>
							0.8 0.8 0.8
						</rgb>
						<gamma>1</gamma>
					</rgb>
				</constant>
			</diffuse_albedo>
			<exponent>
				<constant>
					150
				</constant>
			</exponent>
			<layer>0</layer>
			<fresnel_scale>1</fresnel_scale>
			<ior>1.4</ior>
			<nk_data></nk_data>
		</phong>
	</material>

	<material>
		<name>white_tile</name>
		<uid>29</uid>
		<blend>
			<a_mat_uid>27</a_mat_uid>
			<b_mat_uid>28</b_mat_uid>
			<blend>
				<constant>
					0.02
				</constant>
			</blend>
			<step_blend>false</step_blend>
		</blend>
	</material>

	<material>
		<name>red_tile_dt</name>
		<uid>30</uid>
		<diffuse>
			<albedo>
				<constant>
					<rgb>
						<rgb>
							0.5 0.01 0.05
						</rgb>
						<gamma>1</gamma>
					</rgb>
				</constant>
			</albedo>
			<random_triangle_colours>false</random_triangle_colours>
			<layer>0</layer>
		</diffuse>
	</material>

	<material>
		<name>red_tile_ph</name>
		<uid>31</uid>
		<phong>
			<diffuse_albedo>
				<constant>
					<rgb>
						<rgb>
							0.8 0.8 0.8
						</rgb>
						<gamma>1</gamma>
					</rgb>
				</constant>
			</diffuse_albedo>
			<exponent>
				<constant>
					150
				</constant>
			</exponent>
			<layer>0</layer>
			<fresnel_scale>1</fresnel_scale>
			<ior>1.4</ior>
			<nk_data></nk_data>
		</phong>
	</material>

	<material>
		<name>red_tile</name>
		<uid>32</uid>
		<blend>
			<a_mat_uid>30</a_mat_uid>
			<b_mat_uid>31</b_mat_uid>
			<blend>
				<constant>
					0.02
				</constant>
			</blend>
			<step_blend>false</step_blend>
		</blend>
	</material>

	<material>
		<name>white_matte</name>
		<uid>33</uid>
		<diffuse>
			<albedo>
				<constant>
					<rgb>
						<rgb>
							0.8 0.8 0.8
						</rgb>
						<gamma>1</gamma>
					</rgb>
				</constant>
			</albedo>
			<random_triangle_colours>false</random_triangle_colours>
			<layer>0</layer>
		</diffuse>
	</material>

	<mesh>
		<uid>34</uid>
		<name>downlight_b1</name>
		<max_num_subdivisions>0</max_num_subdivisions>
		<subdivide_pixel_threshold>0.0000000000000000</subdivide_pixel_threshold>
		<subdivide_curvature_threshold>0.0000000000000000</subdivide_curvature_threshold>
		<displacement_error_threshold>0.0000000000000000</displacement_error_threshold>
		<view_dependent_subdivision>false</view_dependent_subdivision>
		<subdivision_smoothing>true</subdivision_smoothing>
		<normal_smoothing>true</normal_smoothing>
		<merge_vertices_with_same_pos_and_normal>true</merge_vertices_with_same_pos_and_normal>
		<wrap_u>false</wrap_u>
		<wrap_v>false</wrap_v>
		<view_dependent_subdivision>false</view_dependent_subdivision>
		<scale>1.0000000000000000</scale>
		<external>
			<path>/Users/wahn/git/radiance_vs_younameit/igs/scene1/mesh_downlight_b1.igmesh</path>
		</external>
	</mesh>

	<mesh>
		<uid>35</uid>
		<name>downlight_a2</name>
		<max_num_subdivisions>0</max_num_subdivisions>
		<subdivide_pixel_threshold>0.0000000000000000</subdivide_pixel_threshold>
		<subdivide_curvature_threshold>0.0000000000000000</subdivide_curvature_threshold>
		<displacement_error_threshold>0.0000000000000000</displacement_error_threshold>
		<view_dependent_subdivision>false</view_dependent_subdivision>
		<subdivision_smoothing>true</subdivision_smoothing>
		<normal_smoothing>true</normal_smoothing>
		<merge_vertices_with_same_pos_and_normal>true</merge_vertices_with_same_pos_and_normal>
		<wrap_u>false</wrap_u>
		<wrap_v>false</wrap_v>
		<view_dependent_subdivision>false</view_dependent_subdivision>
		<scale>1.0000000000000000</scale>
		<external>
			<path>/Users/wahn/git/radiance_vs_younameit/igs/scene1/mesh_downlight_a2.igmesh</path>
		</external>
	</mesh>

	<mesh>
		<uid>36</uid>
		<name>downlight_a1</name>
		<max_num_subdivisions>0</max_num_subdivisions>
		<subdivide_pixel_threshold>0.0000000000000000</subdivide_pixel_threshold>
		<subdivide_curvature_threshold>0.0000000000000000</subdivide_curvature_threshold>
		<displacement_error_threshold>0.0000000000000000</displacement_error_threshold>
		<view_dependent_subdivision>false</view_dependent_subdivision>
		<subdivision_smoothing>true</subdivision_smoothing>
		<normal_smoothing>true</normal_smoothing>
		<merge_vertices_with_same_pos_and_normal>true</merge_vertices_with_same_pos_and_normal>
		<wrap_u>false</wrap_u>
		<wrap_v>false</wrap_v>
		<view_dependent_subdivision>false</view_dependent_subdivision>
		<scale>1.0000000000000000</scale>
		<external>
			<path>/Users/wahn/git/radiance_vs_younameit/igs/scene1/mesh_downlight_a2.igmesh</path>
		</external>
	</mesh>

	<mesh>
		<uid>37</uid>
		<name>bulbf2</name>
		<max_num_subdivisions>0</max_num_subdivisions>
		<subdivide_pixel_threshold>0.0000000000000000</subdivide_pixel_threshold>
		<subdivide_curvature_threshold>0.0000000000000000</subdivide_curvature_threshold>
		<displacement_error_threshold>0.0000000000000000</displacement_error_threshold>
		<view_dependent_subdivision>false</view_dependent_subdivision>
		<subdivision_smoothing>true</subdivision_smoothing>
		<normal_smoothing>true</normal_smoothing>
		<merge_vertices_with_same_pos_and_normal>true</merge_vertices_with_same_pos_and_normal>
		<wrap_u>false</wrap_u>
		<wrap_v>false</wrap_v>
		<view_dependent_subdivision>false</view_dependent_subdivision>
		<scale>1.0000000000000000</scale>
		<external>
			<path>/Users/wahn/git/radiance_vs_younameit/igs/scene1/mesh_bulbf2.igmesh</path>
		</external>
	</mesh>

	<mesh>
		<uid>38</uid>
		<name>bulbf1</name>
		<max_num_subdivisions>0</max_num_subdivisions>
		<subdivide_pixel_threshold>0.0000000000000000</subdivide_pixel_threshold>
		<subdivide_curvature_threshold>0.0000000000000000</subdivide_curvature_threshold>
		<displacement_error_threshold>0.0000000000000000</displacement_error_threshold>
		<view_dependent_subdivision>false</view_dependent_subdivision>
		<subdivision_smoothing>true</subdivision_smoothing>
		<normal_smoothing>true</normal_smoothing>
		<merge_vertices_with_same_pos_and_normal>true</merge_vertices_with_same_pos_and_normal>
		<wrap_u>false</wrap_u>
		<wrap_v>false</wrap_v>
		<view_dependent_subdivision>false</view_dependent_subdivision>
		<scale>1.0000000000000000</scale>
		<external>
			<path>/Users/wahn/git/radiance_vs_younameit/igs/scene1/mesh_bulbf1.igmesh</path>
		</external>
	</mesh>

	<mesh>
		<uid>39</uid>
		<name>posts2</name>
		<max_num_subdivisions>0</max_num_subdivisions>
		<subdivide_pixel_threshold>0.0000000000000000</subdivide_pixel_threshold>
		<subdivide_curvature_threshold>0.0000000000000000</subdivide_curvature_threshold>
		<displacement_error_threshold>0.0000000000000000</displacement_error_threshold>
		<view_dependent_subdivision>false</view_dependent_subdivision>
		<subdivision_smoothing>true</subdivision_smoothing>
		<normal_smoothing>true</normal_smoothing>
		<merge_vertices_with_same_pos_and_normal>true</merge_vertices_with_same_pos_and_normal>
		<wrap_u>false</wrap_u>
		<wrap_v>false</wrap_v>
		<view_dependent_subdivision>false</view_dependent_subdivision>
		<scale>1.0000000000000000</scale>
		<external>
			<path>/Users/wahn/git/radiance_vs_younameit/igs/scene1/mesh_posts2.igmesh</path>
		</external>
	</mesh>

	<mesh>
		<uid>40</uid>
		<name>posts1</name>
		<max_num_subdivisions>0</max_num_subdivisions>
		<subdivide_pixel_threshold>0.0000000000000000</subdivide_pixel_threshold>
		<subdivide_curvature_threshold>0.0000000000000000</subdivide_curvature_threshold>
		<displacement_error_threshold>0.0000000000000000</displacement_error_threshold>
		<view_dependent_subdivision>false</view_dependent_subdivision>
		<subdivision_smoothing>true</subdivision_smoothing>
		<normal_smoothing>true</normal_smoothing>
		<merge_vertices_with_same_pos_and_normal>true</merge_vertices_with_same_pos_and_normal>
		<wrap_u>false</wrap_u>
		<wrap_v>false</wrap_v>
		<view_dependent_subdivision>false</view_dependent_subdivision>
		<scale>1.0000000000000000</scale>
		<external>
			<path>/Users/wahn/git/radiance_vs_younameit/igs/scene1/mesh_posts1.igmesh</path>
		</external>
	</mesh>

	<mesh>
		<uid>41</uid>
		<name>mirror</name>
		<max_num_subdivisions>0</max_num_subdivisions>
		<subdivide_pixel_threshold>0.0000000000000000</subdivide_pixel_threshold>
		<subdivide_curvature_threshold>0.0000000000000000</subdivide_curvature_threshold>
		<displacement_error_threshold>0.0000000000000000</displacement_error_threshold>
		<view_dependent_subdivision>false</view_dependent_subdivision>
		<subdivision_smoothing>true</subdivision_smoothing>
		<normal_smoothing>true</normal_smoothing>
		<merge_vertices_with_same_pos_and_normal>true</merge_vertices_with_same_pos_and_normal>
		<wrap_u>false</wrap_u>
		<wrap_v>false</wrap_v>
		<view_dependent_subdivision>false</view_dependent_subdivision>
		<scale>1.0000000000000000</scale>
		<external>
			<path>/Users/wahn/git/radiance_vs_younameit/igs/scene1/mesh_mirror.igmesh</path>
		</external>
	</mesh>

	<mesh>
		<uid>42</uid>
		<name>rose</name>
		<max_num_subdivisions>0</max_num_subdivisions>
		<subdivide_pixel_threshold>0.0000000000000000</subdivide_pixel_threshold>
		<subdivide_curvature_threshold>0.0000000000000000</subdivide_curvature_threshold>
		<displacement_error_threshold>0.0000000000000000</displacement_error_threshold>
		<view_dependent_subdivision>false</view_dependent_subdivision>
		<subdivision_smoothing>true</subdivision_smoothing>
		<normal_smoothing>true</normal_smoothing>
		<merge_vertices_with_same_pos_and_normal>true</merge_vertices_with_same_pos_and_normal>
		<wrap_u>false</wrap_u>
		<wrap_v>false</wrap_v>
		<view_dependent_subdivision>false</view_dependent_subdivision>
		<scale>1.0000000000000000</scale>
		<external>
			<path>/Users/wahn/git/radiance_vs_younameit/igs/scene1/mesh_rose.igmesh</path>
		</external>
	</mesh>

	<mesh>
		<uid>43</uid>
		<name>vase</name>
		<max_num_subdivisions>0</max_num_subdivisions>
		<subdivide_pixel_threshold>0.0000000000000000</subdivide_pixel_threshold>
		<subdivide_curvature_threshold>0.0000000000000000</subdivide_curvature_threshold>
		<displacement_error_threshold>0.0000000000000000</displacement_error_threshold>
		<view_dependent_subdivision>false</view_dependent_subdivision>
		<subdivision_smoothing>true</subdivision_smoothing>
		<normal_smoothing>true</normal_smoothing>
		<merge_vertices_with_same_pos_and_normal>true</merge_vertices_with_same_pos_and_normal>
		<wrap_u>false</wrap_u>
		<wrap_v>false</wrap_v>
		<view_dependent_subdivision>false</view_dependent_subdivision>
		<scale>1.0000000000000000</scale>
		<external>
			<path>/Users/wahn/git/radiance_vs_younameit/igs/scene1/mesh_vase.igmesh</path>
		</external>
	</mesh>

	<mesh>
		<uid>44</uid>
		<name>baseboard</name>
		<max_num_subdivisions>0</max_num_subdivisions>
		<subdivide_pixel_threshold>0.0000000000000000</subdivide_pixel_threshold>
		<subdivide_curvature_threshold>0.0000000000000000</subdivide_curvature_threshold>
		<displacement_error_threshold>0.0000000000000000</displacement_error_threshold>
		<view_dependent_subdivision>false</view_dependent_subdivision>
		<subdivision_smoothing>true</subdivision_smoothing>
		<normal_smoothing>true</normal_smoothing>
		<merge_vertices_with_same_pos_and_normal>true</merge_vertices_with_same_pos_and_normal>
		<wrap_u>false</wrap_u>
		<wrap_v>false</wrap_v>
		<view_dependent_subdivision>false</view_dependent_subdivision>
		<scale>1.0000000000000000</scale>
		<external>
			<path>/Users/wahn/git/radiance_vs_younameit/igs/scene1/mesh_baseboard.igmesh</path>
		</external>
	</mesh>

	<mesh>
		<uid>45</uid>
		<name>stool2</name>
		<max_num_subdivisions>0</max_num_subdivisions>
		<subdivide_pixel_threshold>0.0000000000000000</subdivide_pixel_threshold>
		<subdivide_curvature_threshold>0.0000000000000000</subdivide_curvature_threshold>
		<displacement_error_threshold>0.0000000000000000</displacement_error_threshold>
		<view_dependent_subdivision>false</view_dependent_subdivision>
		<subdivision_smoothing>true</subdivision_smoothing>
		<normal_smoothing>true</normal_smoothing>
		<merge_vertices_with_same_pos_and_normal>true</merge_vertices_with_same_pos_and_normal>
		<wrap_u>false</wrap_u>
		<wrap_v>false</wrap_v>
		<view_dependent_subdivision>false</view_dependent_subdivision>
		<scale>1.0000000000000000</scale>
		<external>
			<path>/Users/wahn/git/radiance_vs_younameit/igs/scene1/mesh_stool2.igmesh</path>
		</external>
	</mesh>

	<mesh>
		<uid>46</uid>
		<name>stool1</name>
		<max_num_subdivisions>0</max_num_subdivisions>
		<subdivide_pixel_threshold>0.0000000000000000</subdivide_pixel_threshold>
		<subdivide_curvature_threshold>0.0000000000000000</subdivide_curvature_threshold>
		<displacement_error_threshold>0.0000000000000000</displacement_error_threshold>
		<view_dependent_subdivision>false</view_dependent_subdivision>
		<subdivision_smoothing>true</subdivision_smoothing>
		<normal_smoothing>true</normal_smoothing>
		<merge_vertices_with_same_pos_and_normal>true</merge_vertices_with_same_pos_and_normal>
		<wrap_u>false</wrap_u>
		<wrap_v>false</wrap_v>
		<view_dependent_subdivision>false</view_dependent_subdivision>
		<scale>1.0000000000000000</scale>
		<external>
			<path>/Users/wahn/git/radiance_vs_younameit/igs/scene1/mesh_stool1.igmesh</path>
		</external>
	</mesh>

	<mesh>
		<uid>47</uid>
		<name>table</name>
		<max_num_subdivisions>0</max_num_subdivisions>
		<subdivide_pixel_threshold>0.0000000000000000</subdivide_pixel_threshold>
		<subdivide_curvature_threshold>0.0000000000000000</subdivide_curvature_threshold>
		<displacement_error_threshold>0.0000000000000000</displacement_error_threshold>
		<view_dependent_subdivision>false</view_dependent_subdivision>
		<subdivision_smoothing>true</subdivision_smoothing>
		<normal_smoothing>true</normal_smoothing>
		<merge_vertices_with_same_pos_and_normal>true</merge_vertices_with_same_pos_and_normal>
		<wrap_u>false</wrap_u>
		<wrap_v>false</wrap_v>
		<view_dependent_subdivision>false</view_dependent_subdivision>
		<scale>1.0000000000000000</scale>
		<external>
			<path>/Users/wahn/git/radiance_vs_younameit/igs/scene1/mesh_table.igmesh</path>
		</external>
	</mesh>

	<mesh>
		<uid>48</uid>
		<name>floor</name>
		<max_num_subdivisions>0</max_num_subdivisions>
		<subdivide_pixel_threshold>0.0000000000000000</subdivide_pixel_threshold>
		<subdivide_curvature_threshold>0.0000000000000000</subdivide_curvature_threshold>
		<displacement_error_threshold>0.0000000000000000</displacement_error_threshold>
		<view_dependent_subdivision>false</view_dependent_subdivision>
		<subdivision_smoothing>true</subdivision_smoothing>
		<normal_smoothing>true</normal_smoothing>
		<merge_vertices_with_same_pos_and_normal>true</merge_vertices_with_same_pos_and_normal>
		<wrap_u>false</wrap_u>
		<wrap_v>false</wrap_v>
		<view_dependent_subdivision>false</view_dependent_subdivision>
		<scale>1.0000000000000000</scale>
		<external>
			<path>/Users/wahn/git/radiance_vs_younameit/igs/scene1/mesh_floor.igmesh</path>
		</external>
	</mesh>

	<mesh>
		<uid>49</uid>
		<name>wall</name>
		<max_num_subdivisions>0</max_num_subdivisions>
		<subdivide_pixel_threshold>0.0000000000000000</subdivide_pixel_threshold>
		<subdivide_curvature_threshold>0.0000000000000000</subdivide_curvature_threshold>
		<displacement_error_threshold>0.0000000000000000</displacement_error_threshold>
		<view_dependent_subdivision>false</view_dependent_subdivision>
		<subdivision_smoothing>true</subdivision_smoothing>
		<normal_smoothing>true</normal_smoothing>
		<merge_vertices_with_same_pos_and_normal>true</merge_vertices_with_same_pos_and_normal>
		<wrap_u>false</wrap_u>
		<wrap_v>false</wrap_v>
		<view_dependent_subdivision>false</view_dependent_subdivision>
		<scale>1.0000000000000000</scale>
		<external>
			<path>/Users/wahn/git/radiance_vs_younameit/igs/scene1/mesh_wall.igmesh</path>
		</external>
	</mesh>

	<mesh>
		<uid>50</uid>
		<name>ceiling</name>
		<max_num_subdivisions>0</max_num_subdivisions>
		<subdivide_pixel_threshold>0.0000000000000000</subdivide_pixel_threshold>
		<subdivide_curvature_threshold>0.0000000000000000</subdivide_curvature_threshold>
		<displacement_error_threshold>0.0000000000000000</displacement_error_threshold>
		<view_dependent_subdivision>false</view_dependent_subdivision>
		<subdivision_smoothing>true</subdivision_smoothing>
		<normal_smoothing>true</normal_smoothing>
		<merge_vertices_with_same_pos_and_normal>true</merge_vertices_with_same_pos_and_normal>
		<wrap_u>false</wrap_u>
		<wrap_v>false</wrap_v>
		<view_dependent_subdivision>false</view_dependent_subdivision>
		<scale>1.0000000000000000</scale>
		<external>
			<path>/Users/wahn/git/radiance_vs_younameit/igs/scene1/mesh_ceiling.igmesh</path>
		</external>
	</mesh>

	<model2>
		<uid>51</uid>
		<name>downlight_b1 instance</name>
		<geometry_uid>34</geometry_uid>
		<scale>1.00000</scale>
		<rotation>
			<matrix>
				1 0 0 0 1 0 0 0 1 
			</matrix>
		</rotation>
		<keyframe>
			<time>0.0000000000000000</time>
			<pos>9.4374e-08 -0.5 7.99</pos>
			<rotation_quaternion>
				<axis>0 0 1</axis>
				<angle>0.0000000000000000</angle>
			</rotation_quaternion>
		</keyframe>
		<materials>
			<material_uid>7</material_uid>
		</materials>
	</model2>

	<model2>
		<uid>52</uid>
		<name>downlight_a2 instance</name>
		<geometry_uid>35</geometry_uid>
		<scale>1.00000</scale>
		<rotation>
			<matrix>
				1 0 0 0 1 0 0 0 1 
			</matrix>
		</rotation>
		<keyframe>
			<time>0.0000000000000000</time>
			<pos>3 -1 7.99</pos>
			<rotation_quaternion>
				<axis>0 0 1</axis>
				<angle>0.0000000000000000</angle>
			</rotation_quaternion>
		</keyframe>
		<materials>
			<material_uid>8</material_uid>
		</materials>
	</model2>

	<model2>
		<uid>53</uid>
		<name>downlight_a1 instance</name>
		<geometry_uid>36</geometry_uid>
		<scale>1.00000</scale>
		<rotation>
			<matrix>
				1 0 0 0 1 0 0 0 1 
			</matrix>
		</rotation>
		<keyframe>
			<time>0.0000000000000000</time>
			<pos>-3 -1 7.99</pos>
			<rotation_quaternion>
				<axis>0 0 1</axis>
				<angle>0.0000000000000000</angle>
			</rotation_quaternion>
		</keyframe>
		<materials>
			<material_uid>8</material_uid>
		</materials>
	</model2>

	<model2>
		<uid>54</uid>
		<name>bulbf2 instance</name>
		<geometry_uid>37</geometry_uid>
		<scale>1.00000</scale>
		<rotation>
			<matrix>
				1 0 0 0 1 0 0 0 1 
			</matrix>
		</rotation>
		<keyframe>
			<time>0.0000000000000000</time>
			<pos>2.75 3.75001 6.5</pos>
			<rotation_quaternion>
				<axis>0 0 1</axis>
				<angle>0.0000000000000000</angle>
			</rotation_quaternion>
		</keyframe>
		<materials>
			<material_uid>9</material_uid>
		</materials>
	</model2>

	<model2>
		<uid>55</uid>
		<name>bulbf1 instance</name>
		<geometry_uid>38</geometry_uid>
		<scale>1.00000</scale>
		<rotation>
			<matrix>
				1 0 0 0 1 0 0 0 1 
			</matrix>
		</rotation>
		<keyframe>
			<time>0.0000000000000000</time>
			<pos>-2.75 3.75001 6.5</pos>
			<rotation_quaternion>
				<axis>0 0 1</axis>
				<angle>0.0000000000000000</angle>
			</rotation_quaternion>
		</keyframe>
		<materials>
			<material_uid>9</material_uid>
		</materials>
	</model2>

	<model2>
		<uid>56</uid>
		<name>posts2 instance</name>
		<geometry_uid>39</geometry_uid>
		<scale>1.00000</scale>
		<rotation>
			<matrix>
				1 0 0 0 1 0 0 0 1 
			</matrix>
		</rotation>
		<keyframe>
			<time>0.0000000000000000</time>
			<pos>2.75 3.76651 6.5</pos>
			<rotation_quaternion>
				<axis>0 0 1</axis>
				<angle>0.0000000000000000</angle>
			</rotation_quaternion>
		</keyframe>
		<materials>
			<material_uid>10</material_uid>
			<material_uid>11</material_uid>
			<material_uid>14</material_uid>
		</materials>
	</model2>

	<model2>
		<uid>57</uid>
		<name>posts1 instance</name>
		<geometry_uid>40</geometry_uid>
		<scale>1.00000</scale>
		<rotation>
			<matrix>
				1 0 0 0 1 0 0 0 1 
			</matrix>
		</rotation>
		<keyframe>
			<time>0.0000000000000000</time>
			<pos>-2.75 3.76651 6.5</pos>
			<rotation_quaternion>
				<axis>0 0 1</axis>
				<angle>0.0000000000000000</angle>
			</rotation_quaternion>
		</keyframe>
		<materials>
			<material_uid>10</material_uid>
			<material_uid>11</material_uid>
			<material_uid>14</material_uid>
		</materials>
	</model2>

	<model2>
		<uid>58</uid>
		<name>mirror instance</name>
		<geometry_uid>41</geometry_uid>
		<scale>1.00000</scale>
		<rotation>
			<matrix>
				1 0 0 0 1 0 0 0 1 
			</matrix>
		</rotation>
		<keyframe>
			<time>0.0000000000000000</time>
			<pos>-3.92066e-08 3.64333 4.99504</pos>
			<rotation_quaternion>
				<axis>0 0 1</axis>
				<angle>0.0000000000000000</angle>
			</rotation_quaternion>
		</keyframe>
		<materials>
			<material_uid>15</material_uid>
			<material_uid>16</material_uid>
		</materials>
	</model2>

	<model2>
		<uid>59</uid>
		<name>rose instance</name>
		<geometry_uid>42</geometry_uid>
		<scale>1.00000</scale>
		<rotation>
			<matrix>
				1 0 0 0 1 0 0 0 1 
			</matrix>
		</rotation>
		<keyframe>
			<time>0.0000000000000000</time>
			<pos>-0.0024108 0.00437427 5.00665</pos>
			<rotation_quaternion>
				<axis>0 0 1</axis>
				<angle>0.0000000000000000</angle>
			</rotation_quaternion>
		</keyframe>
		<materials>
			<material_uid>17</material_uid>
			<material_uid>18</material_uid>
			<material_uid>19</material_uid>
		</materials>
	</model2>

	<model2>
		<uid>60</uid>
		<name>vase instance</name>
		<geometry_uid>43</geometry_uid>
		<scale>1.00000</scale>
		<rotation>
			<matrix>
				1 0 0 0 1 0 0 0 1 
			</matrix>
		</rotation>
		<keyframe>
			<time>0.0000000000000000</time>
			<pos>2.29911e-08 2.07095e-07 3.78577</pos>
			<rotation_quaternion>
				<axis>0 0 1</axis>
				<angle>0.0000000000000000</angle>
			</rotation_quaternion>
		</keyframe>
		<materials>
			<material_uid>14</material_uid>
			<material_uid>22</material_uid>
		</materials>
	</model2>

	<model2>
		<uid>61</uid>
		<name>baseboard instance</name>
		<geometry_uid>44</geometry_uid>
		<scale>1.00000</scale>
		<rotation>
			<matrix>
				1 0 0 0 1 0 0 0 1 
			</matrix>
		</rotation>
		<keyframe>
			<time>0.0000000000000000</time>
			<pos>0 3.94286 0.221428</pos>
			<rotation_quaternion>
				<axis>0 0 1</axis>
				<angle>0.0000000000000000</angle>
			</rotation_quaternion>
		</keyframe>
		<materials>
			<material_uid>23</material_uid>
		</materials>
	</model2>

	<model2>
		<uid>62</uid>
		<name>stool2 instance</name>
		<geometry_uid>45</geometry_uid>
		<scale>1.00000</scale>
		<rotation>
			<matrix>
				1 0 0 0 1 0 0 0 1 
			</matrix>
		</rotation>
		<keyframe>
			<time>0.0000000000000000</time>
			<pos>-2 5.96046e-09 1.505</pos>
			<rotation_quaternion>
				<axis>0 0 1</axis>
				<angle>0.0000000000000000</angle>
			</rotation_quaternion>
		</keyframe>
		<materials>
			<material_uid>26</material_uid>
		</materials>
	</model2>

	<model2>
		<uid>63</uid>
		<name>stool1 instance</name>
		<geometry_uid>46</geometry_uid>
		<scale>1.00000</scale>
		<rotation>
			<matrix>
				1 0 0 0 1 0 0 0 1 
			</matrix>
		</rotation>
		<keyframe>
			<time>0.0000000000000000</time>
			<pos>2.5 -7.45058e-10 1.505</pos>
			<rotation_quaternion>
				<axis>0 0 1</axis>
				<angle>0.0000000000000000</angle>
			</rotation_quaternion>
		</keyframe>
		<materials>
			<material_uid>26</material_uid>
		</materials>
	</model2>

	<model2>
		<uid>64</uid>
		<name>table instance</name>
		<geometry_uid>47</geometry_uid>
		<scale>1.00000</scale>
		<rotation>
			<matrix>
				1 0 0 0 1 0 0 0 1 
			</matrix>
		</rotation>
		<keyframe>
			<time>0.0000000000000000</time>
			<pos>3.90652e-08 8.05468e-08 3.09324</pos>
			<rotation_quaternion>
				<axis>0 0 1</axis>
				<angle>0.0000000000000000</angle>
			</rotation_quaternion>
		</keyframe>
		<materials>
			<material_uid>26</material_uid>
		</materials>
	</model2>

	<model2>
		<uid>65</uid>
		<name>floor instance</name>
		<geometry_uid>48</geometry_uid>
		<scale>1.00000</scale>
		<rotation>
			<matrix>
				1 0 0 0 1 0 0 0 1 
			</matrix>
		</rotation>
		<keyframe>
			<time>0.0000000000000000</time>
			<pos>2.29726e-08 -1.92473e-08 -0.0500001</pos>
			<rotation_quaternion>
				<axis>0 0 1</axis>
				<angle>0.0000000000000000</angle>
			</rotation_quaternion>
		</keyframe>
		<materials>
			<material_uid>29</material_uid>
			<material_uid>32</material_uid>
		</materials>
	</model2>

	<model2>
		<uid>66</uid>
		<name>wall instance</name>
		<geometry_uid>49</geometry_uid>
		<scale>1.00000</scale>
		<rotation>
			<matrix>
				1 0 0 0 1 0 0 0 1 
			</matrix>
		</rotation>
		<keyframe>
			<time>0.0000000000000000</time>
			<pos>0 4.1 4</pos>
			<rotation_quaternion>
				<axis>0 0 1</axis>
				<angle>0.0000000000000000</angle>
			</rotation_quaternion>
		</keyframe>
		<materials>
			<material_uid>33</material_uid>
		</materials>
	</model2>

	<model2>
		<uid>67</uid>
		<name>ceiling instance</name>
		<geometry_uid>50</geometry_uid>
		<scale>1.00000</scale>
		<rotation>
			<matrix>
				1 0 0 0 1 0 0 0 1 
			</matrix>
		</rotation>
		<keyframe>
			<time>0.0000000000000000</time>
			<pos>0 0 8.1</pos>
			<rotation_quaternion>
				<axis>0 0 1</axis>
				<angle>0.0000000000000000</angle>
			</rotation_quaternion>
		</keyframe>
		<materials>
			<material_uid>33</material_uid>
		</materials>
	</model2>
</scene>
