<?xml version="1.0" encoding="utf-8"?>
<scene>
	<renderer_settings>
		<uid>1</uid>
		<name>Render Settings</name>
		<aperture_diffraction>false</aperture_diffraction>
		<auto_choose_num_threads>true</auto_choose_num_threads>
		<batched>false</batched>
		<bidirectional>true</bidirectional>
		<bih_tri_threshold>1100000</bih_tri_threshold>
		<cache_trees>true</cache_trees>
		<close_gui_on_halt>false</close_gui_on_halt>
		<depth_pass>false</depth_pass>
		<display_period>20.0000000000000000</display_period>
		<frame_upload_period>40.0000000000000000</frame_upload_period>
		<glass_acceleration>true</glass_acceleration>
		<gpu>false</gpu>
		<gpu_device_number>-1</gpu_device_number>
		<halt_samples_per_pixel>-1.0000000000000000</halt_samples_per_pixel>
		<halt_time>-1.0000000000000000</halt_time>
		<height>500</height>
		<hybrid>false</hybrid>
		<image_save_period>60.0000000000000000</image_save_period>
		<info_overlay>false</info_overlay>
		<large_mutation_prob>0.4000000000000000</large_mutation_prob>
		<logging>false</logging>
		<material_id_tracer>false</material_id_tracer>
		<max_change>0.0100000000000000</max_change>
		<max_depth>10000</max_depth>
		<max_num_consec_rejections>10000</max_num_consec_rejections>
		<metropolis>true</metropolis>
		<num_threads>1</num_threads>
		<post_process_diffraction>false</post_process_diffraction>
		<render_foreground_alpha>false</render_foreground_alpha>
		<save_igi>false</save_igi>
		<save_images_on_close>false</save_images_on_close>
		<save_tonemapped_exr>false</save_tonemapped_exr>
		<save_untonemapped_exr>false</save_untonemapped_exr>
		<super_sample_factor>2</super_sample_factor>
		<use_opencl>false</use_opencl>
		<verbose>false</verbose>
		<vignetting>true</vignetting>
		<wait_for_slave_frames_on_stop>false</wait_for_slave_frames_on_stop>
		<watermark>false</watermark>
		<width>500</width>
		<write_aperture_preview>false</write_aperture_preview>
		<splat_filter>
			<mn_cubic>
				<blur>0.3000000119209290</blur>
				<ring>0.3000000119209290</ring>
			</mn_cubic>
		</splat_filter>
		<downsize_filter>
			<mn_cubic>
				<blur>0.3000000119209290</blur>
				<ring>0.3000000119209290</ring>
				<radius>2.0000000000000000</radius>
			</mn_cubic>
		</downsize_filter>
		<white_point>
			0.333333 0.333333
		</white_point>
		<layer_setting>
			<name>default</name>
			<xyz>1 1 1</xyz>
		</layer_setting>
	</renderer_settings>

	<metadata>
		<uid>2</uid>
		<name>Metadata</name>
		<exporter>Blendigo 3.0.10</exporter>
		<author>wahn</author>
		<description></description>
		<created_date>2012-03-29 21:54:03 GMT</created_date>
		<platform>10.7.3 x86_64 - Darwin Jan-Walters-MacBook-Pro.local 11.3.0 Darwin Kernel Version 11.3.0: Thu Jan 12 18:47:41 PST 2012; root:xnu-1699.24.23~1/RELEASE_X86_64 x86_64 i386 - Python 3.2 (r32:88445, Mar 1 2011, 21:58:29) [GCC 4.2.1 (Apple Inc. build 5664)]</platform>
		<exporter_specific></exporter_specific>
	</metadata>

	<camera>
		<uid>3</uid>
		<name>Camera</name>
		<aperture_radius>0.0026405448893234</aperture_radius>
		<focus_distance>10.0000000000000000</focus_distance>
		<sensor_width>0.0350000000000000</sensor_width>
		<lens_sensor_dist>0.0422487182291751</lens_sensor_dist>
		<exposure_duration>0.0080000000000000</exposure_duration>
		<lens_shift_up_distance>0.0000000000000000</lens_shift_up_distance>
		<lens_shift_right_distance>0.0000000000000000</lens_shift_right_distance>
	<autofocus/>
		<aperture_shape>
			<circular/>
		</aperture_shape>
		<keyframe>
			<time>0.0000000000000000</time>
			<pos>2.25 0.375 1</pos>
			<rotation_quaternion>
				<axis>0 0 1</axis>
				<angle>0.0000000000000000</angle>
			</rotation_quaternion>
		</keyframe>
		<up>-0.365148 0.182574 0.912871</up>
		<forwards>-0.816496 0.408248 -0.408248</forwards>
	</camera>

	<tonemapping>
		<uid>4</uid>
		<name>Tone Mapping</name>
		<reinhard>
			<pre_scale>4.0000000000000000</pre_scale>
			<post_scale>1.2000000476837160</post_scale>
			<burn>6.0000000000000000</burn>
		</reinhard>
	</tonemapping>

	<skylight>
		<uid>5</uid>
		<name>Sun/Sky</name>
		<sundir>0.421409 -0.59356 0.685639</sundir>
		<turbidity>2.0000000000000000</turbidity>
		<extra_atmospheric>false</extra_atmospheric>
		<sky_layer>0</sky_layer>
		<sun_layer>0</sun_layer>
	</skylight>

	<material>
		<name>blendigo_clay</name>
		<uid>6</uid>
		<diffuse>
			<albedo>
				<constant>
					<rgb>
						<rgb>
							0.8 0.8 0.8
						</rgb>
						<gamma>1</gamma>
					</rgb>
				</constant>
			</albedo>
			<random_triangle_colours>false</random_triangle_colours>
			<layer>0</layer>
		</diffuse>
	</material>

	<material>
		<name>blendigo_null</name>
		<uid>7</uid>
		<null_material>
		</null_material>
	</material>

		<medium>
			<uid>8</uid>
			<name>window_glass_medium</name>
			<precedence>2</precedence>
			<basic>
				<ior>1.52</ior>
				<cauchy_b_coeff>0</cauchy_b_coeff>
				<absorption_coefficient>
					<constant>
						<rgb>
							<rgb>
								0.04 0.04 0.04
							</rgb>
							<gamma>1</gamma>
						</rgb>
					</constant>
				</absorption_coefficient>
			</basic>
		</medium>

	<material>
		<name>window_glass</name>
		<uid>9</uid>
		<specular>
			<internal_medium_uid>8</internal_medium_uid>
			<transparent>true</transparent>
			<layer>0</layer>
		</specular>
	</material>

	<material>
		<name>reflect20</name>
		<uid>10</uid>
		<phong>
			<specular_reflectivity>
				<constant>
					<rgb>
						<rgb>
							0.15 0.2 0.2
						</rgb>
						<gamma>1</gamma>
					</rgb>
				</constant>
			</specular_reflectivity>
			<exponent>
				<constant>
					1e+06
				</constant>
			</exponent>
			<layer>0</layer>
			<fresnel_scale>1</fresnel_scale>
			<ior>1.5</ior>
			<nk_data></nk_data>
		</phong>
	</material>

	<material>
		<name>ground_mat</name>
		<uid>11</uid>
		<diffuse>
			<albedo>
				<constant>
					<rgb>
						<rgb>
							0.28 0.18 0.12
						</rgb>
						<gamma>1</gamma>
					</rgb>
				</constant>
			</albedo>
			<random_triangle_colours>false</random_triangle_colours>
			<layer>0</layer>
		</diffuse>
	</material>

	<material>
		<name>chrome</name>
		<uid>12</uid>
		<phong>
			<specular_reflectivity>
				<constant>
					<rgb>
						<rgb>
							0.8 0.8 0.8
						</rgb>
						<gamma>1</gamma>
					</rgb>
				</constant>
			</specular_reflectivity>
			<exponent>
				<constant>
					10000
				</constant>
			</exponent>
			<layer>0</layer>
			<fresnel_scale>1</fresnel_scale>
			<ior>1.5</ior>
			<nk_data>/Applications/Indigo RT/Indigo.app/Contents/Resources/nkdata/Cr.nk</nk_data>
		</phong>
	</material>

	<material>
		<name>blue_plastic_ph</name>
		<uid>13</uid>
		<phong>
			<diffuse_albedo>
				<constant>
					<rgb>
						<rgb>
							0.1 0.1 0.6
						</rgb>
						<gamma>1</gamma>
					</rgb>
				</constant>
			</diffuse_albedo>
			<exponent>
				<constant>
					150
				</constant>
			</exponent>
			<layer>0</layer>
			<fresnel_scale>1</fresnel_scale>
			<ior>1.4</ior>
			<nk_data></nk_data>
		</phong>
	</material>

	<material>
		<name>blue_plastic_dt</name>
		<uid>14</uid>
		<diffuse>
			<albedo>
				<constant>
					<rgb>
						<rgb>
							0.1 0.1 0.6
						</rgb>
						<gamma>1</gamma>
					</rgb>
				</constant>
			</albedo>
			<random_triangle_colours>false</random_triangle_colours>
			<layer>0</layer>
		</diffuse>
	</material>

	<material>
		<name>blue_plastic</name>
		<uid>15</uid>
		<blend>
			<a_mat_uid>13</a_mat_uid>
			<b_mat_uid>14</b_mat_uid>
			<blend>
				<constant>
					0.28
				</constant>
			</blend>
			<step_blend>false</step_blend>
		</blend>
	</material>

	<material>
		<name>bright</name>
		<uid>16</uid>
		<diffuse>
			<albedo>
				<constant>
					<rgb>
						<rgb>
							0.8 0.8 0.8
						</rgb>
						<gamma>1</gamma>
					</rgb>
				</constant>
			</albedo>
			<base_emission>
				<constant>
					<uniform>
						<value>1e+08</value>
					</uniform>
				</constant>
			</base_emission>
			<emission>
				<constant>
					<rgb>
						<rgb>
							0.8 0.8 0.8
						</rgb>
						<gamma>1</gamma>
					</rgb>
				</constant>
			</emission>
			<random_triangle_colours>false</random_triangle_colours>
			<layer>0</layer>
		</diffuse>
	</material>

	<material>
		<name>gray_paint</name>
		<uid>17</uid>
		<diffuse>
			<albedo>
				<constant>
					<rgb>
						<rgb>
							0.5 0.5 0.5
						</rgb>
						<gamma>1</gamma>
					</rgb>
				</constant>
			</albedo>
			<random_triangle_colours>false</random_triangle_colours>
			<layer>0</layer>
		</diffuse>
	</material>

	<material>
		<name>brown</name>
		<uid>18</uid>
		<diffuse>
			<albedo>
				<constant>
					<rgb>
						<rgb>
							0.2 0.1 0.1
						</rgb>
						<gamma>1</gamma>
					</rgb>
				</constant>
			</albedo>
			<random_triangle_colours>false</random_triangle_colours>
			<layer>0</layer>
		</diffuse>
	</material>

	<material>
		<name>white</name>
		<uid>19</uid>
		<diffuse>
			<albedo>
				<constant>
					<rgb>
						<rgb>
							0.7 0.7 0.7
						</rgb>
						<gamma>1</gamma>
					</rgb>
				</constant>
			</albedo>
			<random_triangle_colours>false</random_triangle_colours>
			<layer>0</layer>
		</diffuse>
	</material>

		<medium>
			<uid>20</uid>
			<name>crystal_medium</name>
			<precedence>2</precedence>
			<basic>
				<ior>1.5</ior>
				<cauchy_b_coeff>0</cauchy_b_coeff>
				<absorption_coefficient>
					<constant>
						<rgb>
							<rgb>
								0.2 0.2 0.2
							</rgb>
							<gamma>1</gamma>
						</rgb>
					</constant>
				</absorption_coefficient>
			</basic>
		</medium>

	<material>
		<name>crystal</name>
		<uid>21</uid>
		<specular>
			<internal_medium_uid>20</internal_medium_uid>
			<transparent>true</transparent>
			<layer>0</layer>
		</specular>
	</material>

	<mesh>
		<uid>22</uid>
		<name>window</name>
		<max_num_subdivisions>0</max_num_subdivisions>
		<subdivide_pixel_threshold>0.0000000000000000</subdivide_pixel_threshold>
		<subdivide_curvature_threshold>0.0000000000000000</subdivide_curvature_threshold>
		<displacement_error_threshold>0.0000000000000000</displacement_error_threshold>
		<view_dependent_subdivision>false</view_dependent_subdivision>
		<subdivision_smoothing>true</subdivision_smoothing>
		<normal_smoothing>true</normal_smoothing>
		<merge_vertices_with_same_pos_and_normal>true</merge_vertices_with_same_pos_and_normal>
		<wrap_u>false</wrap_u>
		<wrap_v>false</wrap_v>
		<view_dependent_subdivision>false</view_dependent_subdivision>
		<scale>1.0000000000000000</scale>
		<external>
			<path>/Users/wahn/git/radiance_vs_younameit/igs/scene0/window.igmesh</path>
		</external>
	</mesh>

	<mesh>
		<uid>23</uid>
		<name>building</name>
		<max_num_subdivisions>0</max_num_subdivisions>
		<subdivide_pixel_threshold>0.0000000000000000</subdivide_pixel_threshold>
		<subdivide_curvature_threshold>0.0000000000000000</subdivide_curvature_threshold>
		<displacement_error_threshold>0.0000000000000000</displacement_error_threshold>
		<view_dependent_subdivision>false</view_dependent_subdivision>
		<subdivision_smoothing>true</subdivision_smoothing>
		<normal_smoothing>true</normal_smoothing>
		<merge_vertices_with_same_pos_and_normal>true</merge_vertices_with_same_pos_and_normal>
		<wrap_u>false</wrap_u>
		<wrap_v>false</wrap_v>
		<view_dependent_subdivision>false</view_dependent_subdivision>
		<scale>1.0000000000000000</scale>
		<external>
			<path>/Users/wahn/git/radiance_vs_younameit/igs/scene0/building.igmesh</path>
		</external>
	</mesh>

	<mesh>
		<uid>24</uid>
		<name>groundplane</name>
		<max_num_subdivisions>0</max_num_subdivisions>
		<subdivide_pixel_threshold>0.0000000000000000</subdivide_pixel_threshold>
		<subdivide_curvature_threshold>0.0000000000000000</subdivide_curvature_threshold>
		<displacement_error_threshold>0.0000000000000000</displacement_error_threshold>
		<view_dependent_subdivision>false</view_dependent_subdivision>
		<subdivision_smoothing>true</subdivision_smoothing>
		<normal_smoothing>true</normal_smoothing>
		<merge_vertices_with_same_pos_and_normal>true</merge_vertices_with_same_pos_and_normal>
		<wrap_u>false</wrap_u>
		<wrap_v>false</wrap_v>
		<view_dependent_subdivision>false</view_dependent_subdivision>
		<scale>1.0000000000000000</scale>
		<external>
			<path>/Users/wahn/git/radiance_vs_younameit/igs/scene0/groundplane.igmesh</path>
		</external>
	</mesh>

	<mesh>
		<uid>25</uid>
		<name>fixture_support</name>
		<max_num_subdivisions>0</max_num_subdivisions>
		<subdivide_pixel_threshold>0.0000000000000000</subdivide_pixel_threshold>
		<subdivide_curvature_threshold>0.0000000000000000</subdivide_curvature_threshold>
		<displacement_error_threshold>0.0000000000000000</displacement_error_threshold>
		<view_dependent_subdivision>false</view_dependent_subdivision>
		<subdivision_smoothing>true</subdivision_smoothing>
		<normal_smoothing>true</normal_smoothing>
		<merge_vertices_with_same_pos_and_normal>true</merge_vertices_with_same_pos_and_normal>
		<wrap_u>false</wrap_u>
		<wrap_v>false</wrap_v>
		<view_dependent_subdivision>false</view_dependent_subdivision>
		<scale>1.0000000000000000</scale>
		<external>
			<path>/Users/wahn/git/radiance_vs_younameit/igs/scene0/fixture_support.igmesh</path>
		</external>
	</mesh>

	<mesh>
		<uid>26</uid>
		<name>box</name>
		<max_num_subdivisions>0</max_num_subdivisions>
		<subdivide_pixel_threshold>0.0000000000000000</subdivide_pixel_threshold>
		<subdivide_curvature_threshold>0.0000000000000000</subdivide_curvature_threshold>
		<displacement_error_threshold>0.0000000000000000</displacement_error_threshold>
		<view_dependent_subdivision>false</view_dependent_subdivision>
		<subdivision_smoothing>true</subdivision_smoothing>
		<normal_smoothing>true</normal_smoothing>
		<merge_vertices_with_same_pos_and_normal>true</merge_vertices_with_same_pos_and_normal>
		<wrap_u>false</wrap_u>
		<wrap_v>false</wrap_v>
		<view_dependent_subdivision>false</view_dependent_subdivision>
		<scale>1.0000000000000000</scale>
		<external>
			<path>/Users/wahn/git/radiance_vs_younameit/igs/scene0/box.igmesh</path>
		</external>
	</mesh>

	<mesh>
		<uid>27</uid>
		<name>fixture</name>
		<max_num_subdivisions>0</max_num_subdivisions>
		<subdivide_pixel_threshold>0.0000000000000000</subdivide_pixel_threshold>
		<subdivide_curvature_threshold>0.0000000000000000</subdivide_curvature_threshold>
		<displacement_error_threshold>0.0000000000000000</displacement_error_threshold>
		<view_dependent_subdivision>false</view_dependent_subdivision>
		<subdivision_smoothing>true</subdivision_smoothing>
		<normal_smoothing>true</normal_smoothing>
		<merge_vertices_with_same_pos_and_normal>true</merge_vertices_with_same_pos_and_normal>
		<wrap_u>false</wrap_u>
		<wrap_v>false</wrap_v>
		<view_dependent_subdivision>false</view_dependent_subdivision>
		<scale>1.0000000000000000</scale>
		<external>
			<path>/Users/wahn/git/radiance_vs_younameit/igs/scene0/fixture.igmesh</path>
		</external>
	</mesh>

	<mesh>
		<uid>28</uid>
		<name>room</name>
		<max_num_subdivisions>0</max_num_subdivisions>
		<subdivide_pixel_threshold>0.0000000000000000</subdivide_pixel_threshold>
		<subdivide_curvature_threshold>0.0000000000000000</subdivide_curvature_threshold>
		<displacement_error_threshold>0.0000000000000000</displacement_error_threshold>
		<view_dependent_subdivision>false</view_dependent_subdivision>
		<subdivision_smoothing>true</subdivision_smoothing>
		<normal_smoothing>true</normal_smoothing>
		<merge_vertices_with_same_pos_and_normal>true</merge_vertices_with_same_pos_and_normal>
		<wrap_u>false</wrap_u>
		<wrap_v>false</wrap_v>
		<view_dependent_subdivision>false</view_dependent_subdivision>
		<scale>1.0000000000000000</scale>
		<external>
			<path>/Users/wahn/git/radiance_vs_younameit/igs/scene0/room.igmesh</path>
		</external>
	</mesh>

	<mesh>
		<uid>29</uid>
		<name>ball</name>
		<max_num_subdivisions>0</max_num_subdivisions>
		<subdivide_pixel_threshold>0.0000000000000000</subdivide_pixel_threshold>
		<subdivide_curvature_threshold>0.0000000000000000</subdivide_curvature_threshold>
		<displacement_error_threshold>0.0000000000000000</displacement_error_threshold>
		<view_dependent_subdivision>false</view_dependent_subdivision>
		<subdivision_smoothing>true</subdivision_smoothing>
		<normal_smoothing>true</normal_smoothing>
		<merge_vertices_with_same_pos_and_normal>true</merge_vertices_with_same_pos_and_normal>
		<wrap_u>false</wrap_u>
		<wrap_v>false</wrap_v>
		<view_dependent_subdivision>false</view_dependent_subdivision>
		<scale>1.0000000000000000</scale>
		<external>
			<path>/Users/wahn/git/radiance_vs_younameit/igs/scene0/ball.igmesh</path>
		</external>
	</mesh>

	<model2>
		<uid>30</uid>
		<name>window instance</name>
		<geometry_uid>22</geometry_uid>
		<scale>1.00000</scale>
		<rotation>
			<matrix>
				1 0 0 0 -1.34359e-07 -1 0 1 -1.34359e-07 
			</matrix>
		</rotation>
		<keyframe>
			<time>0.0000000000000000</time>
			<pos>0 0 0</pos>
			<rotation_quaternion>
				<axis>0 0 1</axis>
				<angle>0.0000000000000000</angle>
			</rotation_quaternion>
		</keyframe>
		<materials>
			<material_uid>9</material_uid>
		</materials>
	</model2>

	<model2>
		<uid>31</uid>
		<name>building instance</name>
		<geometry_uid>23</geometry_uid>
		<scale>1.00000</scale>
		<rotation>
			<matrix>
				1 0 0 0 -1.34359e-07 -1 0 1 -1.34359e-07 
			</matrix>
		</rotation>
		<keyframe>
			<time>0.0000000000000000</time>
			<pos>0 0 0</pos>
			<rotation_quaternion>
				<axis>0 0 1</axis>
				<angle>0.0000000000000000</angle>
			</rotation_quaternion>
		</keyframe>
		<materials>
			<material_uid>10</material_uid>
		</materials>
	</model2>

	<model2>
		<uid>32</uid>
		<name>groundplane instance</name>
		<geometry_uid>24</geometry_uid>
		<scale>1.00000</scale>
		<rotation>
			<matrix>
				1 0 0 0 -1.34359e-07 -1 0 1 -1.34359e-07 
			</matrix>
		</rotation>
		<keyframe>
			<time>0.0000000000000000</time>
			<pos>0 0 0</pos>
			<rotation_quaternion>
				<axis>0 0 1</axis>
				<angle>0.0000000000000000</angle>
			</rotation_quaternion>
		</keyframe>
		<materials>
			<material_uid>11</material_uid>
		</materials>
	</model2>

	<model2>
		<uid>33</uid>
		<name>fixture_support instance</name>
		<geometry_uid>25</geometry_uid>
		<scale>1.00000</scale>
		<rotation>
			<matrix>
				1 0 0 0 1 0 0 0 1 
			</matrix>
		</rotation>
		<keyframe>
			<time>0.0000000000000000</time>
			<pos>2 1 1.5</pos>
			<rotation_quaternion>
				<axis>0 0 1</axis>
				<angle>0.0000000000000000</angle>
			</rotation_quaternion>
		</keyframe>
		<materials>
			<material_uid>12</material_uid>
		</materials>
	</model2>

	<model2>
		<uid>34</uid>
		<name>box instance</name>
		<geometry_uid>26</geometry_uid>
		<scale>1.00000</scale>
		<rotation>
			<matrix>
				0.965926 -0.258819 0 0.258819 0.965926 0 0 0 0.998047 
			</matrix>
		</rotation>
		<keyframe>
			<time>0.0000000000000000</time>
			<pos>0.5 0.75 0</pos>
			<rotation_quaternion>
				<axis>0 0 1</axis>
				<angle>0.0000000000000000</angle>
			</rotation_quaternion>
		</keyframe>
		<materials>
			<material_uid>15</material_uid>
		</materials>
	</model2>

	<model2>
		<uid>35</uid>
		<name>fixture instance</name>
		<geometry_uid>27</geometry_uid>
		<scale>1.00000</scale>
		<rotation>
			<matrix>
				1 0 0 0 1 0 0 0 1 
			</matrix>
		</rotation>
		<keyframe>
			<time>0.0000000000000000</time>
			<pos>2 1 1.5</pos>
			<rotation_quaternion>
				<axis>0 0 1</axis>
				<angle>0.0000000000000000</angle>
			</rotation_quaternion>
		</keyframe>
		<materials>
			<material_uid>16</material_uid>
		</materials>
	</model2>

	<model2>
		<uid>36</uid>
		<name>room instance</name>
		<geometry_uid>28</geometry_uid>
		<scale>1.00000</scale>
		<rotation>
			<matrix>
				1 0 0 0 1 0 0 0 1 
			</matrix>
		</rotation>
		<keyframe>
			<time>0.0000000000000000</time>
			<pos>0 0 0</pos>
			<rotation_quaternion>
				<axis>0 0 1</axis>
				<angle>0.0000000000000000</angle>
			</rotation_quaternion>
		</keyframe>
		<materials>
			<material_uid>17</material_uid>
			<material_uid>18</material_uid>
			<material_uid>19</material_uid>
		</materials>
	</model2>

	<model2>
		<uid>37</uid>
		<name>ball instance</name>
		<geometry_uid>29</geometry_uid>
		<scale>1.00000</scale>
		<rotation>
			<matrix>
				1 0 0 0 1 0 0 0 1 
			</matrix>
		</rotation>
		<keyframe>
			<time>0.0000000000000000</time>
			<pos>0.7 1.125 0.625</pos>
			<rotation_quaternion>
				<axis>0 0 1</axis>
				<angle>0.0000000000000000</angle>
			</rotation_quaternion>
		</keyframe>
		<materials>
			<material_uid>21</material_uid>
		</materials>
	</model2>
</scene>
